Use of 286 to normalize miRXplore
      slope   intercept   CorrData      Data
1 0.5809737 0.039271590  0.1 fmole miRXplore
2 0.5378670 0.017316809    1 fmole miRXplore
3 0.5170312 0.009877910  10 fmoles miRXplore
4 0.5821836 0.003605847 100 fmoles miRXplore

Use of miRXplore to normalize 286 - Equimolar Series
      slope intercept  CorrData       Data
1 0.7163881 0.6291765 miRXplore  0.1 fmole
2 0.7019282 0.6199703 miRXplore    1 fmole
3 0.6883998 0.5522755 miRXplore  10 fmoles
4 0.7391111 0.3924462 miRXplore 100 fmoles

Use of miRXplore to normalize 286 - Ratiometric Series
  Group     slope  intercept  CorrData Data
1     1 0.6619104  0.6047233 miRXplore    A
2     1 0.6009561 -0.5345330 miRXplore    B
3     2 0.3569244  0.2824167 miRXplore    A
4     2 0.3307357 -0.4046924 miRXplore    B
5     3 0.6460903 -0.2123772 miRXplore    A
6     3 0.7113303  0.1387484 miRXplore    B
7     4 0.5649295 -0.6006727 miRXplore    A
8     4 0.5603313  0.7302147 miRXplore    B

Empirical Measures of Variance
   Group     Ratio                 Data             CorrData IsCommon RMSE.corr RMSE.unco  MAE.corr  MAE.unco
1    All Equimolar miRXplore(10 fmoles)       286(0.1 fmole)   Common 0.3604825 0.6212792 0.2622542 0.4998433
2    All Equimolar miRXplore(10 fmoles)       286(0.1 fmole)   Unique 0.6665121 0.6703644 0.5141370 0.5147991
3    All Equimolar miRXplore(10 fmoles)         286(1 fmole)   Common 0.3306886 0.6212792 0.2373433 0.4998433
4    All Equimolar miRXplore(10 fmoles)         286(1 fmole)   Unique 0.6661630 0.6703644 0.5140632 0.5147991
5    All Equimolar miRXplore(10 fmoles)       286(10 fmoles)   Common 0.3190454 0.6212792 0.2335838 0.4998433
6    All Equimolar miRXplore(10 fmoles)       286(10 fmoles)   Unique 0.6661305 0.6703644 0.5139752 0.5147991
7    All Equimolar miRXplore(10 fmoles)      286(100 fmoles)   Common 0.3608683 0.6212792 0.2718256 0.4998433
8    All Equimolar miRXplore(10 fmoles)      286(100 fmoles)   Unique 0.6664894 0.6703644 0.5140487 0.5147991
9    All Equimolar       286(0.1 fmole) miRXplore(10 fmoles)   Common 0.3598723 1.1644187 0.2660754 1.0238241
10   All Equimolar       286(0.1 fmole) miRXplore(10 fmoles)   Unique 0.6765471 0.9429531 0.5477861 0.7543398
11   All Equimolar         286(1 fmole) miRXplore(10 fmoles)   Common 0.3257325 1.1369101 0.2436001 1.0112082
12   All Equimolar         286(1 fmole) miRXplore(10 fmoles)   Unique 0.6261724 0.9313071 0.5024644 0.7663899
13   All Equimolar       286(10 fmoles) miRXplore(10 fmoles)   Common 0.3120052 1.0463842 0.2417221 0.9193303
14   All Equimolar       286(10 fmoles) miRXplore(10 fmoles)   Unique 0.5584611 0.8251052 0.4466726 0.6746149
15   All Equimolar      286(100 fmoles) miRXplore(10 fmoles)   Common 0.3506114 0.8030126 0.2756924 0.6724641
16   All Equimolar      286(100 fmoles) miRXplore(10 fmoles)   Unique 0.5129271 0.6181535 0.4037741 0.4567583
17     1         A      286(100 fmoles) miRXplore(10 fmoles)   Common 0.4309791 0.6510714 0.3417410 0.5195182
18     1         A      286(100 fmoles) miRXplore(10 fmoles)   Unique 0.5305368 0.5305837 0.4025017 0.4025325
19     1         B      286(100 fmoles) miRXplore(10 fmoles)   Common 0.3903375 0.6494814 0.2926915 0.5140289
20     1         B      286(100 fmoles) miRXplore(10 fmoles)   Unique 0.4762668 0.4768497 0.3863722 0.3868536
21     2         A      286(100 fmoles) miRXplore(10 fmoles)   Common 0.3559137 0.6143481 0.2642003 0.5089625
22     2         A      286(100 fmoles) miRXplore(10 fmoles)   Unique 0.8412389 0.8411071 0.6788456 0.6787847
23     2         B      286(100 fmoles) miRXplore(10 fmoles)   Common 0.3438682 0.6178439 0.2478424 0.5121629
24     2         B      286(100 fmoles) miRXplore(10 fmoles)   Unique 0.6953142 0.6955114 0.5336714 0.5337729
25     3         A      286(100 fmoles) miRXplore(10 fmoles)   Common 0.3729939 0.5772143 0.2493628 0.4630904
26     3         A      286(100 fmoles) miRXplore(10 fmoles)   Unique 0.4217091 0.4215085 0.3245659 0.3243126
27     3         B      286(100 fmoles) miRXplore(10 fmoles)   Common 0.4056889 0.5702402 0.3100271 0.4397191
28     3         B      286(100 fmoles) miRXplore(10 fmoles)   Unique 0.5084015 0.5090787 0.3687224 0.3690524
29     4         A      286(100 fmoles) miRXplore(10 fmoles)   Common 0.3914969 0.6866707 0.3039758 0.5660802
30     4         A      286(100 fmoles) miRXplore(10 fmoles)   Unique 0.5510305 0.5512175 0.4539762 0.4537843
31     4         B      286(100 fmoles) miRXplore(10 fmoles)   Common 0.3862143 0.6524525 0.3065834 0.5199833
32     4         B      286(100 fmoles) miRXplore(10 fmoles)   Unique 0.4169183 0.4169105 0.3267716 0.3267643
    MAD.corr  MAD.unco  TwoF.cor TwoF.uncor Ran95.cor Ran95.uncor Ran99.cor Ran99.uncor Range.cor Range.uncor
1  0.3020730 0.6451997 0.7055838  0.3147208  1.463674    2.258754  2.027909    3.074952  2.458775    3.990846
2  0.6328322 0.6421882 0.3647059  0.3673203  2.447174    2.446408  4.155582    4.173437  5.411155    5.791147
3  0.2526340 0.6451997 0.7360406  0.3147208  1.347444    2.258754  1.961749    3.074952  2.019191    3.990846
4  0.6336643 0.6421882 0.3647059  0.3673203  2.446098    2.446408  4.153637    4.173437  5.377279    5.791147
5  0.2553742 0.6451997 0.7411168  0.3147208  1.191645    2.258754  1.661662    3.074952  1.711432    3.990846
6  0.6339848 0.6421882 0.3673203  0.3673203  2.445698    2.446408  4.153259    4.173437  5.370245    5.791147
7  0.3221155 0.6451997 0.6548223  0.3147208  1.302253    2.258754  1.847394    3.074952  1.939153    3.990846
8  0.6341870 0.6421882 0.3673203  0.3673203  2.445632    2.446408  4.155516    4.173437  5.407587    5.791147
9  0.2867567 1.5411535 0.6700508  0.1167513  1.464695    2.475021  2.022612    2.712475  2.457188    3.344060
10 0.6923876 0.9256049 0.3707865  0.2359551  2.576203    2.564361  3.076930    3.097007  3.283454    3.296965
11 0.2759729 1.5191410 0.7005076  0.0964467  1.345205    2.319636  1.940499    2.697296  2.020303    3.445030
12 0.6232715 0.9805691 0.3707865  0.2134831  2.312422    2.317390  2.985223    3.001881  3.131071    3.147028
13 0.3048389 1.2832667 0.7309645  0.1167513  1.160515    2.197307  1.685487    2.643389  1.694289    3.384687
14 0.5024788 0.7965167 0.4494382  0.2247191  2.055973    2.052686  2.776443    2.776826  2.907494    2.905395
15 0.3467075 0.9099845 0.6548223  0.2538071  1.305717    2.138362  1.847022    2.469356  1.940037    3.377536
16 0.4944488 0.4912951 0.4494382  0.4831461  1.982277    1.983393  2.590530    2.596024  2.673465    2.677334
17 0.4117570 0.4851957 0.5600000  0.3800000  1.640330    2.228319  1.907808    2.369152  1.970213    2.412283
18 0.4630605 0.4628656 0.5238095  0.5238095  1.844545    1.844652  2.050597    2.050783  2.102110    2.102316
19 0.3355254 0.6338940 0.6000000  0.3600000  1.393984    2.276595  2.046931    2.863014  2.239864    3.045596
20 0.4718969 0.4734961 0.4761905  0.4761905  1.604014    1.605406  1.737276    1.738483  1.770591    1.771753
21 0.2900879 0.7133406 0.6808511  0.2765957  1.369702    2.121839  1.586822    2.385538  1.640735    2.455724
22 0.8145342 0.8150530 0.2916667  0.2916667  2.856547    2.856104  2.930853    2.928901  2.949430    2.947100
23 0.2937271 0.7025665 0.8085106  0.3191489  1.234430    1.897223  1.734518    2.382227  1.882096    2.524709
24 0.5342338 0.5344028 0.2916667  0.2916667  2.407293    2.408076  2.575445    2.577374  2.617483    2.619699
25 0.2512349 0.4983014 0.7254902  0.3333333  1.684522    1.882744  2.004895    2.743738  2.063349    3.016171
26 0.4016045 0.3998302 0.5714286  0.5714286  1.415597    1.414523  1.490797    1.489456  1.509597    1.508189
27 0.3280031 0.5897808 0.5686275  0.3921569  1.422013    2.083385  1.553690    2.832560  1.592248    3.056366
28 0.3373342 0.3374940 0.5714286  0.5714286  1.745676    1.748450  2.038096    2.042922  2.111202    2.116540
29 0.3390354 0.7839059 0.5918367  0.2653061  1.484091    2.277433  1.624800    2.867093  1.659420    3.051600
30 0.6146306 0.6168841 0.3043478  0.3043478  1.794165    1.795809  2.188134    2.190551  2.286627    2.289237
31 0.3573505 0.6376405 0.5714286  0.3469388  1.396447    2.300448  1.603852    2.937207  1.664266    3.117949
32 0.4204224 0.4204424 0.5217391  0.5217391  1.360370    1.360372  1.536996    1.536998  1.581152    1.581154
        p.KS.2s   p.FK.EqVar p.FAB.H0corrGTuncor
1  4.288396e-07 1.383322e-11        1.198930e-12
2  9.999985e-01 9.882390e-01        5.159703e-01
3  7.457441e-07 2.340833e-14        1.321165e-14
4  9.999985e-01 9.855874e-01        5.162470e-01
5  4.288396e-07 1.147391e-14        1.521006e-14
6  1.000000e+00 9.399703e-01        5.089561e-01
7  1.079045e-04 1.016349e-10        2.486913e-10
8  1.000000e+00 9.803788e-01        5.088637e-01
9  0.000000e+00 3.905182e-14        2.634130e-05
10 8.857443e-10 9.933050e-01        9.221610e-01
11 0.000000e+00 5.409124e-14        3.849394e-06
12 3.353040e-11 9.456984e-01        8.117706e-01
13 0.000000e+00 1.492778e-14        7.233758e-07
14 9.654499e-13 9.325807e-01        8.617231e-01
15 0.000000e+00 1.334439e-09        6.560295e-07
16 1.801200e-08 9.770033e-01        9.531094e-01
17 2.719136e-01 1.683631e-02        4.493024e-02
18 8.530790e-01 8.912651e-01        4.307878e-01
19 6.779471e-02 2.945961e-03        4.576915e-03
20 8.530790e-01 8.748350e-01        5.099355e-01
21 9.334274e-02 1.701799e-04        2.124511e-05
22 9.941612e-01 9.750343e-01        4.270175e-01
23 5.445289e-02 2.547900e-04        3.231728e-05
24 9.941612e-01 8.986607e-01        3.795440e-01
25 2.376350e-02 8.206332e-04        8.643084e-06
26 9.870442e-01 9.751813e-01        4.504429e-01
27 4.083544e-01 3.980888e-02        3.332208e-02
28 9.870442e-01 9.496677e-01        4.504429e-01
29 1.975414e-02 1.594440e-04        2.311988e-05
30 8.880369e-01 9.629321e-01        3.885598e-01
31 3.612176e-02 1.830185e-03        6.560333e-04
32 4.217818e-01 9.687905e-01        4.566605e-01

Average Reductions in metrics
  IsCommon    RMSE.mn     MAE.mn    MAD.mn    TwoF.mn      Ran95.mn    Ran99.mn   Range.mn   RMSE.sd    MAE.sd
1   Common 0.47151288 0.51345799 0.5626863 -1.9061755  3.662692e-01 0.337822587 0.39491280 0.1299681 0.1350790
2   Unique 0.07064237 0.06743399 0.0647373 -0.1390168 -1.577712e-05 0.002241992 0.01808906 0.1267238 0.1286982
     MAD.sd   TwoF.sd   Ran95.sd    Ran99.sd   Range.sd
1 0.1618434 1.8025461 0.08769805 0.083762804 0.11310426
2 0.1332341 0.3230299 0.00150368 0.002430695 0.03044332

----------------------------------------------------

Linear Regression Model
   Group     Ratio                 Data             CorrData  D.Cmn       95%CI.Cmn pv.Cmn  D.Unq      95%CI.Unq
1    All Equimolar miRXplore(10 fmoles)       286(0.1 fmole) -0.220 -0.245 , -0.195  0.000 -0.001 -0.013 , 0.012
2    All Equimolar miRXplore(10 fmoles)         286(1 fmole) -0.242 -0.265 , -0.218  0.000 -0.001 -0.013 , 0.011
3    All Equimolar miRXplore(10 fmoles)       286(10 fmoles) -0.243 -0.267 , -0.220  0.000 -0.001 -0.013 , 0.011
4    All Equimolar miRXplore(10 fmoles)      286(100 fmoles) -0.206 -0.229 , -0.182  0.000 -0.001 -0.013 , 0.011
5    All Equimolar       286(0.1 fmole) miRXplore(10 fmoles) -0.267 -0.314 , -0.220  0.000 -0.001 -0.071 , 0.069
6    All Equimolar         286(1 fmole) miRXplore(10 fmoles) -0.249 -0.297 , -0.202  0.000 -0.001 -0.071 , 0.070
7    All Equimolar       286(10 fmoles) miRXplore(10 fmoles) -0.234 -0.279 , -0.190  0.000  0.001 -0.066 , 0.067
8    All Equimolar      286(100 fmoles) miRXplore(10 fmoles) -0.176 -0.220 , -0.133  0.000 -0.000 -0.065 , 0.065
9      1         A      286(100 fmoles) miRXplore(10 fmoles) -0.178 -0.268 , -0.088  0.000 -0.000 -0.139 , 0.139
10     1         B      286(100 fmoles) miRXplore(10 fmoles) -0.221 -0.299 , -0.143  0.000 -0.000 -0.121 , 0.120
11     2         A      286(100 fmoles) miRXplore(10 fmoles) -0.245 -0.340 , -0.150  0.000  0.000 -0.133 , 0.133
12     2         B      286(100 fmoles) miRXplore(10 fmoles) -0.264 -0.352 , -0.176  0.000 -0.000 -0.123 , 0.123
13     3         A      286(100 fmoles) miRXplore(10 fmoles) -0.214 -0.303 , -0.125  0.000  0.000 -0.139 , 0.139
14     3         B      286(100 fmoles) miRXplore(10 fmoles) -0.130 -0.220 , -0.040  0.002 -0.000 -0.141 , 0.140
15     4         A      286(100 fmoles) miRXplore(10 fmoles) -0.262 -0.361 , -0.163  0.000  0.000 -0.144 , 0.145
16     4         B      286(100 fmoles) miRXplore(10 fmoles) -0.213 -0.314 , -0.113  0.000  0.000 -0.147 , 0.147
   pv.Unq
1   0.461
2   0.454
3   0.448
4   0.453
5   0.488
6   0.492
7   0.494
8   0.498
9   0.500
10  0.497
11  0.500
12  0.499
13  0.499
14  0.498
15  0.499
16  0.500
