"miRNA","method","p","Dataset"
"hsa-let-7a-3p","gamlssADP",2.7952344243199e-93,"BvsEquiv2"
"hsa-let-7a-5p","gamlssADP",2.53379256048061e-177,"BvsEquiv2"
"hsa-let-7b-5p","gamlssADP",2.19451794911518e-172,"BvsEquiv2"
"hsa-let-7c-5p","gamlssADP",2.47781256147888e-171,"BvsEquiv2"
"hsa-let-7d-3p","gamlssADP",3.22737926025535e-186,"BvsEquiv2"
"hsa-let-7e-5p","gamlssADP",1.1144479801057e-222,"BvsEquiv2"
"hsa-let-7f-5p","gamlssADP",1.16327320542785e-177,"BvsEquiv2"
"hsa-let-7g-5p","gamlssADP",2.08253483407481e-149,"BvsEquiv2"
"hsa-let-7i-3p","gamlssADP",6.41698094256096e-263,"BvsEquiv2"
"hsa-miR-1","gamlssADP",1.03421821382775e-64,"BvsEquiv2"
"hsa-miR-100-5p","gamlssADP",1.50013012450224e-62,"BvsEquiv2"
"hsa-miR-101-3p","gamlssADP",5.82912317759369e-137,"BvsEquiv2"
"hsa-miR-103a-3p","gamlssADP",1.46315740042118e-130,"BvsEquiv2"
"hsa-miR-103b","gamlssADP",4.03510754195217e-192,"BvsEquiv2"
"hsa-miR-106b-5p","gamlssADP",6.29636960038235e-108,"BvsEquiv2"
"hsa-miR-107","gamlssADP",3.29511658006872e-110,"BvsEquiv2"
"hsa-miR-10a-5p","gamlssADP",3.15834438490643e-65,"BvsEquiv2"
"hsa-miR-10b-5p","gamlssADP",1.69928930334963e-62,"BvsEquiv2"
"hsa-miR-1180-3p","gamlssADP",5.75793226541015e-76,"BvsEquiv2"
"hsa-miR-122-5p","gamlssADP",1.37330355916074e-152,"BvsEquiv2"
"hsa-miR-1228-5p","gamlssADP",2.96525546151113e-250,"BvsEquiv2"
"hsa-miR-124-3p","gamlssADP",2.23169513214889e-195,"BvsEquiv2"
"hsa-miR-1246","gamlssADP",3.16245158397975e-222,"BvsEquiv2"
"hsa-miR-125a-5p","gamlssADP",8.38151188938273e-91,"BvsEquiv2"
"hsa-miR-125b-5p","gamlssADP",5.99072709350584e-74,"BvsEquiv2"
"hsa-miR-126-3p","gamlssADP",2.83376620876141e-117,"BvsEquiv2"
"hsa-miR-126-5p","gamlssADP",5.00351294188427e-113,"BvsEquiv2"
"hsa-miR-127-3p","gamlssADP",5.84509809155992e-101,"BvsEquiv2"
"hsa-mir-1273a","gamlssADP",4.80308505801051e-47,"BvsEquiv2"
"hsa-miR-1273g-3p","gamlssADP",3.64885164324939e-122,"BvsEquiv2"
"hsa-mir-128-1-3p","gamlssADP",6.16390832611376e-134,"BvsEquiv2"
"hsa-miR-129-3p","gamlssADP",1.12412421701943e-119,"BvsEquiv2"
"hsa-miR-129-5p","gamlssADP",7.34908584678364e-104,"BvsEquiv2"
"hsa-miR-1301-3p","gamlssADP",1.36259844036949e-55,"BvsEquiv2"
"hsa-mir-1306-5p","gamlssADP",1.06918117637361e-95,"BvsEquiv2"
"hsa-miR-1307-3p","gamlssADP",7.96067806941035e-103,"BvsEquiv2"
"hsa-miR-1307-5p","gamlssADP",1.39434352861232e-121,"BvsEquiv2"
"hsa-miR-130a-3p","gamlssADP",1.311768475722e-103,"BvsEquiv2"
"hsa-miR-130b-3p","gamlssADP",6.34592733296977e-88,"BvsEquiv2"
"hsa-miR-130b-5p","gamlssADP",5.62445895162891e-111,"BvsEquiv2"
"hsa-miR-132-3p","gamlssADP",6.68933642747602e-139,"BvsEquiv2"
"hsa-miR-132-5p","gamlssADP",1.68410406547079e-124,"BvsEquiv2"
"hsa-miR-133a-3p","gamlssADP",5.4177699519465e-118,"BvsEquiv2"
"hsa-miR-133a-5p","gamlssADP",4.41300298809609e-47,"BvsEquiv2"
"hsa-miR-133b","gamlssADP",1.12000118964768e-77,"BvsEquiv2"
"hsa-miR-134-5p","gamlssADP",4.66969342570274e-99,"BvsEquiv2"
"hsa-miR-136-3p","gamlssADP",1.34480725886366e-70,"BvsEquiv2"
"hsa-miR-136-5p","gamlssADP",1.10775739677453e-74,"BvsEquiv2"
"hsa-miR-139-3p","gamlssADP",3.08193420258672e-11,"BvsEquiv2"
"hsa-miR-139-5p","gamlssADP",1.13643889892008e-25,"BvsEquiv2"
"hsa-miR-140-3p","gamlssADP",6.35296362488683e-11,"BvsEquiv2"
"hsa-miR-140-5p","gamlssADP",1.47925827671108e-14,"BvsEquiv2"
"hsa-miR-141-3p","gamlssADP",1.79281821461632e-12,"BvsEquiv2"
"hsa-miR-142-3p","gamlssADP",8.28359171029996e-15,"BvsEquiv2"
"hsa-miR-142-5p","gamlssADP",5.3402418743973e-13,"BvsEquiv2"
"hsa-miR-143-3p","gamlssADP",1.49423587142488e-13,"BvsEquiv2"
"hsa-miR-144-3p","gamlssADP",3.94210570601181e-11,"BvsEquiv2"
"hsa-miR-144-5p","gamlssADP",6.09142079172756e-11,"BvsEquiv2"
"hsa-miR-145-3p","gamlssADP",1.43183975955099e-08,"BvsEquiv2"
"hsa-miR-145-5p","gamlssADP",9.87441974247752e-16,"BvsEquiv2"
"hsa-mir-146a-5p","gamlssADP",2.78074035970678e-13,"BvsEquiv2"
"hsa-miR-146b-5p","gamlssADP",1.03407445823807e-11,"BvsEquiv2"
"hsa-miR-148a-3p","gamlssADP",1.07208508815216e-13,"BvsEquiv2"
"hsa-miR-148a-5p","gamlssADP",1.27360584341936e-12,"BvsEquiv2"
"hsa-miR-148b-3p","gamlssADP",1.65652433290637e-05,"BvsEquiv2"
"hsa-miR-150-5p","gamlssADP",4.88704579211793e-17,"BvsEquiv2"
"hsa-miR-151a-3p","gamlssADP",1.8658777528215e-20,"BvsEquiv2"
"hsa-miR-151a-5p","gamlssADP",5.30902498153892e-20,"BvsEquiv2"
"hsa-miR-152-3p","gamlssADP",1.84151750551717e-13,"BvsEquiv2"
"hsa-miR-154-5p","gamlssADP",2.02986830849299e-13,"BvsEquiv2"
"hsa-miR-155-5p","gamlssADP",7.10121196348525e-15,"BvsEquiv2"
"hsa-miR-15a-5p","gamlssADP",4.1199336597498e-10,"BvsEquiv2"
"hsa-miR-15b-3p","gamlssADP",6.23087113570376e-05,"BvsEquiv2"
"hsa-miR-15b-5p","gamlssADP",0.000193027447211009,"BvsEquiv2"
"hsa-miR-16-5p","gamlssADP",6.01937352082272e-12,"BvsEquiv2"
"hsa-miR-17-3p","gamlssADP",3.04871678429445e-15,"BvsEquiv2"
"hsa-miR-17-5p","gamlssADP",6.61070075470677e-09,"BvsEquiv2"
"hsa-miR-181a-2-5p","gamlssADP",1.65124903890622e-12,"BvsEquiv2"
"hsa-miR-181b-1-5p","gamlssADP",1.04092197882617e-12,"BvsEquiv2"
"hsa-miR-182-5p","gamlssADP",4.14556430102935e-07,"BvsEquiv2"
"hsa-miR-183-5p","gamlssADP",1.65900096747216e-07,"BvsEquiv2"
"hsa-miR-184","gamlssADP",4.24442919631783e-08,"BvsEquiv2"
"hsa-miR-185-3p","gamlssADP",2.02917508508558e-10,"BvsEquiv2"
"hsa-miR-185-5p","gamlssADP",6.83369233261789e-26,"BvsEquiv2"
"hsa-miR-186-5p","gamlssADP",1.06205897911591e-19,"BvsEquiv2"
"hsa-miR-188-3p","gamlssADP",5.24027118346826e-22,"BvsEquiv2"
"hsa-miR-188-5p","gamlssADP",1.82913401995079e-19,"BvsEquiv2"
"hsa-miR-18a-3p","gamlssADP",2.11489305707469e-10,"BvsEquiv2"
"hsa-miR-18a-5p","gamlssADP",1.84107213890487e-08,"BvsEquiv2"
"hsa-miR-18b-5p","gamlssADP",3.6711482679074e-08,"BvsEquiv2"
"hsa-miR-1908-5p","gamlssADP",6.37646008098412e-18,"BvsEquiv2"
"hsa-miR-190a-5p","gamlssADP",1.17615777708001e-07,"BvsEquiv2"
"hsa-miR-191-5p","gamlssADP",0.000201857503603645,"BvsEquiv2"
"hsa-miR-192-5p","gamlssADP",1.23768843162693e-19,"BvsEquiv2"
"hsa-miR-193a-5p","gamlssADP",2.85038607012216e-09,"BvsEquiv2"
"hsa-miR-193b-3p","gamlssADP",6.03279473144554e-15,"BvsEquiv2"
"hsa-miR-193b-5p","gamlssADP",1.77762510675774e-266,"BvsEquiv2"
"hsa-miR-195-5p","gamlssADP",4.33643160813986e-231,"BvsEquiv2"
"hsa-miR-196b-5p","gamlssADP",5.05507137793206e-192,"BvsEquiv2"
"hsa-miR-197-3p","gamlssADP",3.96585549770829e-304,"BvsEquiv2"
"hsa-miR-199b-3p","gamlssADP",2.35681999028876e-237,"BvsEquiv2"
"hsa-miR-199b-5p","gamlssADP",1.6599160518527e-96,"BvsEquiv2"
"hsa-miR-19a-3p","gamlssADP",4.23337606065824e-204,"BvsEquiv2"
"hsa-miR-19b-3p","gamlssADP",1.94112666790901e-243,"BvsEquiv2"
"hsa-miR-200a-3p","gamlssADP",6.73190715930802e-101,"BvsEquiv2"
"hsa-miR-200b-3p","gamlssADP",5.01452125813899e-135,"BvsEquiv2"
"hsa-miR-200c-3p","gamlssADP",1.51247449734611e-138,"BvsEquiv2"
"hsa-miR-203b-5p","gamlssADP",4.66558885876067e-129,"BvsEquiv2"
"hsa-miR-204-3p","gamlssADP",2.59341533037602e-191,"BvsEquiv2"
"hsa-miR-205-5p","gamlssADP",3.69636226712129e-171,"BvsEquiv2"
"hsa-miR-208a","gamlssADP",3.47671789977308e-234,"BvsEquiv2"
"hsa-miR-20a-3p","gamlssADP",8.63767749752243e-179,"BvsEquiv2"
"hsa-miR-20a-5p","gamlssADP",1.08041081393193e-105,"BvsEquiv2"
"hsa-miR-20b-5p","gamlssADP",2.20024301640988e-183,"BvsEquiv2"
"hsa-miR-21-5p","gamlssADP",4.63514373067995e-68,"BvsEquiv2"
"hsa-miR-210-3p","gamlssADP",1.68728728545894e-172,"BvsEquiv2"
"hsa-miR-211-5p","gamlssADP",9.78090625155272e-241,"BvsEquiv2"
"hsa-miR-2110","gamlssADP",7.27540527593941e-178,"BvsEquiv2"
"hsa-miR-212-3p","gamlssADP",7.48129091702076e-221,"BvsEquiv2"
"hsa-miR-214","gamlssADP",4.00975969571551e-228,"BvsEquiv2"
"hsa-miR-215-5p","gamlssADP",1.58340564153593e-78,"BvsEquiv2"
"hsa-miR-218-5p","gamlssADP",4.28451894407506e-77,"BvsEquiv2"
"hsa-miR-22-3p","gamlssADP",4.63713376724697e-97,"BvsEquiv2"
"hsa-miR-221-3p","gamlssADP",9.23487842789582e-53,"BvsEquiv2"
"hsa-miR-222-3p","gamlssADP",2.36712752657988e-115,"BvsEquiv2"
"hsa-miR-223-3p","gamlssADP",1.68405760878553e-160,"BvsEquiv2"
"hsa-miR-223-5p","gamlssADP",3.02907135710785e-111,"BvsEquiv2"
"hsa-miR-224-5p","gamlssADP",4.49404509310643e-105,"BvsEquiv2"
"hsa-miR-2355-3p","gamlssADP",7.94579172937147e-85,"BvsEquiv2"
"hsa-miR-23a-3p","gamlssADP",2.1112471145515e-79,"BvsEquiv2"
"hsa-miR-23b-3p","gamlssADP",1.00449300776425e-107,"BvsEquiv2"
"hsa-miR-24-3p","gamlssADP",2.43646273875817e-107,"BvsEquiv2"
"hsa-miR-25-3p","gamlssADP",3.06540794095597e-98,"BvsEquiv2"
"hsa-miR-26a-5p","gamlssADP",2.09936208768122e-65,"BvsEquiv2"
"hsa-miR-26b-5p","gamlssADP",1.3402842577408e-54,"BvsEquiv2"
"hsa-miR-27a-3p","gamlssADP",1.20359207112776e-77,"BvsEquiv2"
"hsa-miR-27b-3p","gamlssADP",8.13998463737113e-75,"BvsEquiv2"
"hsa-miR-28-3p","gamlssADP",1.09055177690368e-109,"BvsEquiv2"
"hsa-miR-28-5p","gamlssADP",4.58545202426244e-125,"BvsEquiv2"
"hsa-miR-296-5p","gamlssADP",3.11863562789658e-122,"BvsEquiv2"
"hsa-miR-299-3p","gamlssADP",1.53782813807315e-86,"BvsEquiv2"
"hsa-miR-299-5p","gamlssADP",2.81499610141926e-97,"BvsEquiv2"
"hsa-miR-29a-3p","gamlssADP",1.11450375862814e-14,"BvsEquiv2"
"hsa-miR-29a-5p","gamlssADP",1.20838270612694e-10,"BvsEquiv2"
"hsa-miR-29b-2-5p","gamlssADP",5.59868440911892e-13,"BvsEquiv2"
"hsa-miR-29b-3p","gamlssADP",1.10768268245022e-15,"BvsEquiv2"
"hsa-miR-29c-3p","gamlssADP",1.68754333320596e-14,"BvsEquiv2"
"hsa-miR-301a-3p","gamlssADP",4.68913383510419e-12,"BvsEquiv2"
"hsa-miR-301b","gamlssADP",3.41184967616352e-13,"BvsEquiv2"
"hsa-miR-302a-3p","gamlssADP",1.80999582130733e-15,"BvsEquiv2"
"hsa-miR-302b-3p","gamlssADP",4.11685517479617e-15,"BvsEquiv2"
"hsa-miR-302c-3p","gamlssADP",2.46092962936775e-27,"BvsEquiv2"
"hsa-miR-30a-5p","gamlssADP",1.80744950636641e-18,"BvsEquiv2"
"hsa-miR-30b-5p","gamlssADP",6.82735388267214e-23,"BvsEquiv2"
"hsa-miR-30c-5p","gamlssADP",3.0364963479825e-21,"BvsEquiv2"
"hsa-miR-30d-5p","gamlssADP",3.93253208875235e-17,"BvsEquiv2"
"hsa-miR-30e-3p","gamlssADP",1.15967369406187e-19,"BvsEquiv2"
"hsa-miR-3184-3p","gamlssADP",0.0454539092945107,"BvsEquiv2"
"hsa-miR-3184-5p","gamlssADP",5.81389787990103e-13,"BvsEquiv2"
"hsa-miR-32-5p","gamlssADP",2.59893924438284e-15,"BvsEquiv2"
"hsa-miR-320a","gamlssADP",8.29170731280917e-11,"BvsEquiv2"
"hsa-mir-320b-1","gamlssADP",4.86756977709786e-09,"BvsEquiv2"
"hsa-mir-320c-1","gamlssADP",1.31929716175245e-22,"BvsEquiv2"
"hsa-miR-320d","gamlssADP",1.7444602590966e-36,"BvsEquiv2"
"hsa-miR-323a-3p","gamlssADP",8.07521732995234e-36,"BvsEquiv2"
"hsa-miR-323b-3p","gamlssADP",1.60559907435946e-58,"BvsEquiv2"
"hsa-miR-324-3p","gamlssADP",1.29459773360048e-11,"BvsEquiv2"
"hsa-miR-324-5p","gamlssADP",4.59240791367146e-18,"BvsEquiv2"
"hsa-miR-326","gamlssADP",2.46837098074589e-22,"BvsEquiv2"
"hsa-miR-330-3p","gamlssADP",1.84645854572593e-17,"BvsEquiv2"
"hsa-miR-331-3p","gamlssADP",3.28348151072636e-23,"BvsEquiv2"
"hsa-miR-335-5p","gamlssADP",1.0593853373446e-06,"BvsEquiv2"
"hsa-miR-338-3p","gamlssADP",2.23815069537526e-27,"BvsEquiv2"
"hsa-miR-338-5p","gamlssADP",1.68963655037072e-09,"BvsEquiv2"
"hsa-miR-339-5p","gamlssADP",4.08763989957283e-11,"BvsEquiv2"
"hsa-miR-33a-5p","gamlssADP",1.3652700644132e-14,"BvsEquiv2"
"hsa-miR-340-3p","gamlssADP",8.14358591847159e-15,"BvsEquiv2"
"hsa-miR-340-5p","gamlssADP",2.56826553086578e-07,"BvsEquiv2"
"hsa-miR-342-3p","gamlssADP",2.03461718587918e-22,"BvsEquiv2"
"hsa-miR-342-5p","gamlssADP",5.62588072493169e-20,"BvsEquiv2"
"hsa-miR-345-5p","gamlssADP",8.80988612273166e-15,"BvsEquiv2"
"hsa-miR-346","gamlssADP",3.05418874013299e-05,"BvsEquiv2"
"hsa-miR-34a-5p","gamlssADP",5.58563890882548e-07,"BvsEquiv2"
"hsa-miR-34c-5p","gamlssADP",8.25048282559874e-11,"BvsEquiv2"
"hsa-miR-3529-3p","gamlssADP",3.56660681444301e-09,"BvsEquiv2"
"hsa-miR-3591-3p","gamlssADP",0.000754495137911769,"BvsEquiv2"
"hsa-miR-361-3p","gamlssADP",1.247721256449e-05,"BvsEquiv2"
"hsa-miR-3615","gamlssADP",8.57744150710108e-15,"BvsEquiv2"
"hsa-miR-362-3p","gamlssADP",3.4241144286574e-23,"BvsEquiv2"
"hsa-miR-362-5p","gamlssADP",2.76087637664165e-16,"BvsEquiv2"
"hsa-miR-363-3p","gamlssADP",1.72797455400147e-59,"BvsEquiv2"
"hsa-mir-3656","gamlssADP",1.16813500500333e-194,"BvsEquiv2"
"hsa-miR-365a-3p","gamlssADP",2.00357211861896e-96,"BvsEquiv2"
"hsa-miR-369-3p","gamlssADP",3.36363960138627e-78,"BvsEquiv2"
"hsa-miR-369-5p","gamlssADP",2.13623396327974e-251,"BvsEquiv2"
"hsa-miR-370-3p","gamlssADP",5.77607105352907e-250,"BvsEquiv2"
"hsa-miR-373-3p","gamlssADP",3.33108749271852e-57,"BvsEquiv2"
"hsa-miR-374a-5p","gamlssADP",4.86868723500906e-114,"BvsEquiv2"
"hsa-miR-374b-5p","gamlssADP",2.84367303262647e-187,"BvsEquiv2"
"hsa-miR-376a-3p","gamlssADP",1.29241871679082e-94,"BvsEquiv2"
"hsa-miR-378a-3p","gamlssADP",1.90382531169665e-264,"BvsEquiv2"
"hsa-miR-378b","gamlssADP",1.02428077135861e-237,"BvsEquiv2"
"hsa-miR-378c","gamlssADP",9.74649239995478e-209,"BvsEquiv2"
"hsa-miR-378d","gamlssADP",7.97191693264319e-165,"BvsEquiv2"
"hsa-miR-378e","gamlssADP",1.07479046429829e-299,"BvsEquiv2"
"hsa-mir-3929","gamlssADP",4.244915048414e-237,"BvsEquiv2"
"hsa-miR-409-3p","gamlssADP",1.13386249780974e-187,"BvsEquiv2"
"hsa-miR-411-5p","gamlssADP",3.28282417411502e-270,"BvsEquiv2"
"hsa-miR-421","gamlssADP",5.56818149065009e-67,"BvsEquiv2"
"hsa-miR-423-5p","gamlssADP",3.09374464501503e-222,"BvsEquiv2"
"hsa-miR-424-3p","gamlssADP",2.01970051929715e-167,"BvsEquiv2"
"hsa-miR-425-3p","gamlssADP",3.08924865788268e-283,"BvsEquiv2"
"hsa-miR-425-5p","gamlssADP",1.35102256194636e-240,"BvsEquiv2"
"hsa-miR-432-5p","gamlssADP",1.06642205740221e-194,"BvsEquiv2"
"hsa-mir-4326","gamlssADP",4.9638137361159e-116,"BvsEquiv2"
"hsa-miR-433-3p","gamlssADP",4.19373388039531e-88,"BvsEquiv2"
"hsa-miR-4433-3p","gamlssADP",9.24176926694116e-48,"BvsEquiv2"
"hsa-miR-4433-5p","gamlssADP",1.84915594711437e-166,"BvsEquiv2"
"hsa-miR-4433b-3p","gamlssADP",6.31716704482101e-78,"BvsEquiv2"
"hsa-miR-4433b-5p","gamlssADP",1.87983912566617e-157,"BvsEquiv2"
"hsa-miR-4440","gamlssADP",1.48773223579999e-71,"BvsEquiv2"
"hsa-miR-4488","gamlssADP",2.91341666997671e-118,"BvsEquiv2"
"hsa-miR-449a","gamlssADP",1.05466503466373e-70,"BvsEquiv2"
"hsa-miR-449b","gamlssADP",1.05159744806921e-106,"BvsEquiv2"
"hsa-miR-450a-5p","gamlssADP",9.36048354142651e-91,"BvsEquiv2"
"hsa-miR-450b-5p","gamlssADP",5.11610092878557e-93,"BvsEquiv2"
"hsa-miR-451a","gamlssADP",6.82484619335586e-91,"BvsEquiv2"
"hsa-mir-451b","gamlssADP",1.0721083267268e-70,"BvsEquiv2"
"hsa-mir-4521","gamlssADP",7.68111222723641e-46,"BvsEquiv2"
"hsa-miR-455-3p","gamlssADP",4.00991049815157e-108,"BvsEquiv2"
"hsa-miR-4732-5p","gamlssADP",1.38212712918947e-88,"BvsEquiv2"
"hsa-miR-483-5p","gamlssADP",3.93801058958715e-77,"BvsEquiv2"
"hsa-miR-484","gamlssADP",8.71786297264439e-111,"BvsEquiv2"
"hsa-miR-485-3p","gamlssADP",2.36481034718716e-120,"BvsEquiv2"
"hsa-miR-485-5p","gamlssADP",6.52532322457035e-72,"BvsEquiv2"
"hsa-miR-486-3p","gamlssADP",3.77984120800674e-112,"BvsEquiv2"
"hsa-miR-486-5p","gamlssADP",9.56090315088932e-87,"BvsEquiv2"
"hsa-miR-490-3p","gamlssADP",7.94064361159881e-76,"BvsEquiv2"
"hsa-miR-495-3p","gamlssADP",2.09724203574778e-21,"BvsEquiv2"
"hsa-miR-497-5p","gamlssADP",2.70488584061022e-12,"BvsEquiv2"
"hsa-miR-499a-5p","gamlssADP",1.7308353370537e-18,"BvsEquiv2"
"hsa-miR-499b-3p","gamlssADP",2.75236181069069e-18,"BvsEquiv2"
"hsa-miR-500a-3p","gamlssADP",0.000168199960715788,"BvsEquiv2"
"hsa-miR-500a-5p","gamlssADP",4.07845014671492e-15,"BvsEquiv2"
"hsa-miR-501-3p","gamlssADP",6.71970039523053e-10,"BvsEquiv2"
"hsa-miR-502-3p","gamlssADP",0.000759201233631906,"BvsEquiv2"
"hsa-miR-532-3p","gamlssADP",6.89168856634413e-25,"BvsEquiv2"
"hsa-miR-532-5p","gamlssADP",3.34432553483134e-17,"BvsEquiv2"
"hsa-miR-543","gamlssADP",1.78320120065543e-10,"BvsEquiv2"
"hsa-miR-551b-3p","gamlssADP",1.98351989302044e-10,"BvsEquiv2"
"hsa-miR-574-3p","gamlssADP",5.04872458807052e-11,"BvsEquiv2"
"hsa-miR-576-3p","gamlssADP",1.61312889357784e-14,"BvsEquiv2"
"hsa-miR-584-5p","gamlssADP",5.31358192660582e-16,"BvsEquiv2"
"hsa-miR-589-5p","gamlssADP",1.03005725648351e-13,"BvsEquiv2"
"hsa-miR-590-5p","gamlssADP",5.03937111914176e-12,"BvsEquiv2"
"hsa-miR-605","gamlssADP",1.99192768692242e-57,"BvsEquiv2"
"hsa-miR-615-3p","gamlssADP",1.63320292288456e-22,"BvsEquiv2"
"hsa-miR-625-3p","gamlssADP",8.08542449437307e-22,"BvsEquiv2"
"hsa-miR-625-5p","gamlssADP",0.000106211448641128,"BvsEquiv2"
"hsa-miR-629-5p","gamlssADP",1.75646812000604e-13,"BvsEquiv2"
"hsa-miR-652-3p","gamlssADP",2.59994785104675e-16,"BvsEquiv2"
"hsa-miR-654-3p","gamlssADP",3.95432632000901e-26,"BvsEquiv2"
"hsa-miR-660-5p","gamlssADP",4.35276354409052e-10,"BvsEquiv2"
"hsa-miR-664a-5p","gamlssADP",1.4639671866459e-06,"BvsEquiv2"
"hsa-miR-671-5p","gamlssADP",2.8159520582352e-08,"BvsEquiv2"
"hsa-miR-6852-5p","gamlssADP",4.74416259653561e-27,"BvsEquiv2"
"hsa-miR-7-5p","gamlssADP",6.75053624321989e-09,"BvsEquiv2"
"hsa-miR-744-5p","gamlssADP",1.32848973788629e-23,"BvsEquiv2"
"hsa-mir-7641-1","gamlssADP",6.87229026527752e-24,"BvsEquiv2"
"hsa-miR-766-3p","gamlssADP",3.52057429964238e-12,"BvsEquiv2"
"hsa-miR-766-5p","gamlssADP",2.02666080069196e-22,"BvsEquiv2"
"hsa-miR-769-5p","gamlssADP",2.88715409045868e-16,"BvsEquiv2"
"hsa-miR-7706","gamlssADP",7.48518950711846e-09,"BvsEquiv2"
"hsa-miR-7974","gamlssADP",8.37589936854847e-09,"BvsEquiv2"
"hsa-miR-874-3p","gamlssADP",2.20745933369724e-14,"BvsEquiv2"
"hsa-miR-885-5p","gamlssADP",2.06574552283924e-11,"BvsEquiv2"
"hsa-miR-9-5p","gamlssADP",0.000598615712859405,"BvsEquiv2"
"hsa-miR-92a-3p","gamlssADP",2.2772507828166e-06,"BvsEquiv2"
"hsa-miR-92b-3p","gamlssADP",1.79254434585012e-05,"BvsEquiv2"
"hsa-miR-93-3p","gamlssADP",0.000436126805534507,"BvsEquiv2"
"hsa-miR-941","gamlssADP",4.18825290271273e-05,"BvsEquiv2"
"hsa-miR-942-5p","gamlssADP",2.78788275316146e-23,"BvsEquiv2"
"hsa-miR-96","gamlssADP",5.55046034423761e-15,"BvsEquiv2"
"hsa-miR-98-5p","gamlssADP",5.8753998031397e-07,"BvsEquiv2"
"hsa-miR-99a-5p","gamlssADP",2.16408281209846e-13,"BvsEquiv2"
"hsa-miR-99b-5p","gamlssADP",9.81170452551164e-07,"BvsEquiv2"
"hsa-let-7a-3p","CRp",9.69236482173258e-10,"BvsEquiv2"
"hsa-let-7a-5p","CRp",2.23451179082854e-07,"BvsEquiv2"
"hsa-let-7b-5p","CRp",3.14591075411016e-07,"BvsEquiv2"
"hsa-let-7c-5p","CRp",2.92649186651949e-07,"BvsEquiv2"
"hsa-let-7d-3p","CRp",9.17545056711496e-09,"BvsEquiv2"
"hsa-let-7e-5p","CRp",9.96356401324467e-08,"BvsEquiv2"
"hsa-let-7f-5p","CRp",3.08532042587464e-07,"BvsEquiv2"
"hsa-let-7g-5p","CRp",1.19333710664075e-06,"BvsEquiv2"
"hsa-let-7i-3p","CRp",9.16181194363269e-11,"BvsEquiv2"
"hsa-miR-1","CRp",6.75511080513577e-08,"BvsEquiv2"
"hsa-miR-100-5p","CRp",4.63944024587997e-10,"BvsEquiv2"
"hsa-miR-101-3p","CRp",2.97249975327058e-10,"BvsEquiv2"
"hsa-miR-103a-3p","CRp",1.3865301600707e-08,"BvsEquiv2"
"hsa-miR-103b","CRp",8.11105114400673e-08,"BvsEquiv2"
"hsa-miR-106b-5p","CRp",3.27243041094728e-10,"BvsEquiv2"
"hsa-miR-107","CRp",4.80292301276323e-08,"BvsEquiv2"
"hsa-miR-10a-5p","CRp",1.8210310159026e-06,"BvsEquiv2"
"hsa-miR-10b-5p","CRp",1.68162058909321e-06,"BvsEquiv2"
"hsa-miR-1180-3p","CRp",1.00574165991177e-09,"BvsEquiv2"
"hsa-miR-122-5p","CRp",6.80891848966658e-09,"BvsEquiv2"
"hsa-miR-1228-5p","CRp",2.12881071102672e-09,"BvsEquiv2"
"hsa-miR-124-3p","CRp",6.5223589101905e-11,"BvsEquiv2"
"hsa-miR-1246","CRp",2.77031011897224e-10,"BvsEquiv2"
"hsa-miR-125a-5p","CRp",4.02879136084677e-08,"BvsEquiv2"
"hsa-miR-125b-5p","CRp",2.60698536654106e-07,"BvsEquiv2"
"hsa-miR-126-3p","CRp",8.90159820920207e-08,"BvsEquiv2"
"hsa-miR-126-5p","CRp",4.53821258310798e-09,"BvsEquiv2"
"hsa-miR-127-3p","CRp",8.32209205194783e-09,"BvsEquiv2"
"hsa-mir-1273a","CRp",6.24285639376492e-08,"BvsEquiv2"
"hsa-miR-1273g-3p","CRp",2.64623385435441e-08,"BvsEquiv2"
"hsa-mir-128-1-3p","CRp",2.22083326521394e-08,"BvsEquiv2"
"hsa-miR-129-3p","CRp",1.38177486045132e-08,"BvsEquiv2"
"hsa-miR-129-5p","CRp",1.62316628400686e-08,"BvsEquiv2"
"hsa-miR-1301-3p","CRp",2.05623221607164e-07,"BvsEquiv2"
"hsa-mir-1306-5p","CRp",3.13885671900531e-08,"BvsEquiv2"
"hsa-miR-1307-3p","CRp",9.34598019687698e-10,"BvsEquiv2"
"hsa-miR-1307-5p","CRp",7.76510486848968e-11,"BvsEquiv2"
"hsa-miR-130a-3p","CRp",2.11496429667822e-08,"BvsEquiv2"
"hsa-miR-130b-3p","CRp",6.950190616726e-08,"BvsEquiv2"
"hsa-miR-130b-5p","CRp",1.05505852212188e-07,"BvsEquiv2"
"hsa-miR-132-3p","CRp",1.0844179807367e-07,"BvsEquiv2"
"hsa-miR-132-5p","CRp",5.53668063971794e-08,"BvsEquiv2"
"hsa-miR-133a-3p","CRp",3.36721174064991e-07,"BvsEquiv2"
"hsa-miR-133a-5p","CRp",1.09180127368403e-07,"BvsEquiv2"
"hsa-miR-133b","CRp",7.27387082994983e-07,"BvsEquiv2"
"hsa-miR-134-5p","CRp",2.58364726651922e-11,"BvsEquiv2"
"hsa-miR-136-3p","CRp",8.08113411370577e-07,"BvsEquiv2"
"hsa-miR-136-5p","CRp",3.69204517752113e-12,"BvsEquiv2"
"hsa-miR-139-3p","CRp",6.58319615467672e-06,"BvsEquiv2"
"hsa-miR-139-5p","CRp",5.58428047680411e-07,"BvsEquiv2"
"hsa-miR-140-3p","CRp",1.94242238386152e-08,"BvsEquiv2"
"hsa-miR-140-5p","CRp",1.42180707332149e-06,"BvsEquiv2"
"hsa-miR-141-3p","CRp",2.31862974503946e-07,"BvsEquiv2"
"hsa-miR-142-3p","CRp",8.99929314721425e-07,"BvsEquiv2"
"hsa-miR-142-5p","CRp",1.23975385482877e-07,"BvsEquiv2"
"hsa-miR-143-3p","CRp",2.86416412690454e-06,"BvsEquiv2"
"hsa-miR-144-3p","CRp",2.0561520226948e-09,"BvsEquiv2"
"hsa-miR-144-5p","CRp",0.00010780218774836,"BvsEquiv2"
"hsa-miR-145-3p","CRp",0.000224133706806109,"BvsEquiv2"
"hsa-miR-145-5p","CRp",8.39525998447104e-06,"BvsEquiv2"
"hsa-mir-146a-5p","CRp",6.63278192537587e-05,"BvsEquiv2"
"hsa-miR-146b-5p","CRp",7.11891722068123e-05,"BvsEquiv2"
"hsa-miR-148a-3p","CRp",6.93621647743843e-06,"BvsEquiv2"
"hsa-miR-148a-5p","CRp",3.26207329081115e-06,"BvsEquiv2"
"hsa-miR-148b-3p","CRp",0.00112421915287606,"BvsEquiv2"
"hsa-miR-150-5p","CRp",8.67939070247832e-07,"BvsEquiv2"
"hsa-miR-151a-3p","CRp",1.10260377529172e-06,"BvsEquiv2"
"hsa-miR-151a-5p","CRp",4.26103043915558e-07,"BvsEquiv2"
"hsa-miR-152-3p","CRp",3.1700949519382e-08,"BvsEquiv2"
"hsa-miR-154-5p","CRp",6.39658763597809e-06,"BvsEquiv2"
"hsa-miR-155-5p","CRp",0.000273597035993696,"BvsEquiv2"
"hsa-miR-15a-5p","CRp",4.04441765456475e-06,"BvsEquiv2"
"hsa-miR-15b-3p","CRp",0.0222912718625749,"BvsEquiv2"
"hsa-miR-15b-5p","CRp",0.00295868762888024,"BvsEquiv2"
"hsa-miR-16-5p","CRp",3.49174805912143e-06,"BvsEquiv2"
"hsa-miR-17-3p","CRp",5.96866102757645e-05,"BvsEquiv2"
"hsa-miR-17-5p","CRp",0.00012930614755608,"BvsEquiv2"
"hsa-miR-181a-2-5p","CRp",1.40617980901842e-05,"BvsEquiv2"
"hsa-miR-181b-1-5p","CRp",1.03134404691312e-06,"BvsEquiv2"
"hsa-miR-182-5p","CRp",0.00908741337078015,"BvsEquiv2"
"hsa-miR-183-5p","CRp",0.0107322880950878,"BvsEquiv2"
"hsa-miR-184","CRp",0.000549193827785162,"BvsEquiv2"
"hsa-miR-185-3p","CRp",7.91889162567256e-05,"BvsEquiv2"
"hsa-miR-185-5p","CRp",9.26641226476987e-07,"BvsEquiv2"
"hsa-miR-186-5p","CRp",1.91722637628104e-08,"BvsEquiv2"
"hsa-miR-188-3p","CRp",9.14301129868479e-09,"BvsEquiv2"
"hsa-miR-188-5p","CRp",1.36965667107162e-07,"BvsEquiv2"
"hsa-miR-18a-3p","CRp",0.000169150587412491,"BvsEquiv2"
"hsa-miR-18a-5p","CRp",0.000323051632826225,"BvsEquiv2"
"hsa-miR-18b-5p","CRp",0.00197603740172482,"BvsEquiv2"
"hsa-miR-1908-5p","CRp",2.37387711810824e-08,"BvsEquiv2"
"hsa-miR-190a-5p","CRp",0.011486459681471,"BvsEquiv2"
"hsa-miR-191-5p","CRp",0.00127926994728994,"BvsEquiv2"
"hsa-miR-192-5p","CRp",1.22562016955561e-05,"BvsEquiv2"
"hsa-miR-193a-5p","CRp",2.77574729319262e-05,"BvsEquiv2"
"hsa-miR-193b-3p","CRp",5.29715898725574e-06,"BvsEquiv2"
"hsa-miR-193b-5p","CRp",8.18140206342117e-09,"BvsEquiv2"
"hsa-miR-195-5p","CRp",8.60612366774152e-09,"BvsEquiv2"
"hsa-miR-196b-5p","CRp",4.40569814264988e-08,"BvsEquiv2"
"hsa-miR-197-3p","CRp",2.02574900681478e-08,"BvsEquiv2"
"hsa-miR-199b-3p","CRp",3.52943328927015e-07,"BvsEquiv2"
"hsa-miR-199b-5p","CRp",1.11349206017415e-07,"BvsEquiv2"
"hsa-miR-19a-3p","CRp",2.95965128934223e-07,"BvsEquiv2"
"hsa-miR-19b-3p","CRp",1.34762060048862e-07,"BvsEquiv2"
"hsa-miR-200a-3p","CRp",7.36509094502024e-07,"BvsEquiv2"
"hsa-miR-200b-3p","CRp",7.42544195958498e-07,"BvsEquiv2"
"hsa-miR-200c-3p","CRp",8.62137677990467e-07,"BvsEquiv2"
"hsa-miR-203b-5p","CRp",1.38727592302867e-07,"BvsEquiv2"
"hsa-miR-204-3p","CRp",1.51140693889023e-08,"BvsEquiv2"
"hsa-miR-205-5p","CRp",3.92113243619145e-08,"BvsEquiv2"
"hsa-miR-208a","CRp",1.83215668288196e-09,"BvsEquiv2"
"hsa-miR-20a-3p","CRp",1.54980140909412e-07,"BvsEquiv2"
"hsa-miR-20a-5p","CRp",1.21522301290677e-07,"BvsEquiv2"
"hsa-miR-20b-5p","CRp",3.31005232773827e-07,"BvsEquiv2"
"hsa-miR-21-5p","CRp",1.33146524664747e-06,"BvsEquiv2"
"hsa-miR-210-3p","CRp",3.86274783948714e-08,"BvsEquiv2"
"hsa-miR-211-5p","CRp",3.70539939524721e-08,"BvsEquiv2"
"hsa-miR-2110","CRp",1.17337911872379e-08,"BvsEquiv2"
"hsa-miR-212-3p","CRp",5.147791237733e-09,"BvsEquiv2"
"hsa-miR-214","CRp",4.3550939315559e-09,"BvsEquiv2"
"hsa-miR-215-5p","CRp",2.8095989258175e-07,"BvsEquiv2"
"hsa-miR-218-5p","CRp",3.05520570121576e-08,"BvsEquiv2"
"hsa-miR-22-3p","CRp",2.00017305593257e-10,"BvsEquiv2"
"hsa-miR-221-3p","CRp",1.17692484218327e-06,"BvsEquiv2"
"hsa-miR-222-3p","CRp",7.94318049835954e-08,"BvsEquiv2"
"hsa-miR-223-3p","CRp",1.36150550702471e-07,"BvsEquiv2"
"hsa-miR-223-5p","CRp",1.67330172342224e-07,"BvsEquiv2"
"hsa-miR-224-5p","CRp",1.37993424183036e-07,"BvsEquiv2"
"hsa-miR-2355-3p","CRp",1.55120210051095e-06,"BvsEquiv2"
"hsa-miR-23a-3p","CRp",1.07955177985766e-07,"BvsEquiv2"
"hsa-miR-23b-3p","CRp",2.78132688013401e-07,"BvsEquiv2"
"hsa-miR-24-3p","CRp",9.86078437494231e-09,"BvsEquiv2"
"hsa-miR-25-3p","CRp",2.58540578549795e-07,"BvsEquiv2"
"hsa-miR-26a-5p","CRp",2.51484584400216e-06,"BvsEquiv2"
"hsa-miR-26b-5p","CRp",4.36705672248305e-06,"BvsEquiv2"
"hsa-miR-27a-3p","CRp",3.51736617299382e-11,"BvsEquiv2"
"hsa-miR-27b-3p","CRp",5.43207552507042e-07,"BvsEquiv2"
"hsa-miR-28-3p","CRp",1.05712170871431e-07,"BvsEquiv2"
"hsa-miR-28-5p","CRp",2.33140797963951e-09,"BvsEquiv2"
"hsa-miR-296-5p","CRp",4.21569563499018e-09,"BvsEquiv2"
"hsa-miR-299-3p","CRp",5.20319266882998e-07,"BvsEquiv2"
"hsa-miR-299-5p","CRp",3.4439992459453e-08,"BvsEquiv2"
"hsa-miR-29a-3p","CRp",1.56677239075338e-05,"BvsEquiv2"
"hsa-miR-29a-5p","CRp",9.31463364402217e-05,"BvsEquiv2"
"hsa-miR-29b-2-5p","CRp",5.26449798611821e-05,"BvsEquiv2"
"hsa-miR-29b-3p","CRp",3.56810909930216e-05,"BvsEquiv2"
"hsa-miR-29c-3p","CRp",2.67114215018323e-05,"BvsEquiv2"
"hsa-miR-301a-3p","CRp",2.48925699353356e-05,"BvsEquiv2"
"hsa-miR-301b","CRp",4.68706020800926e-06,"BvsEquiv2"
"hsa-miR-302a-3p","CRp",3.71309459908928e-06,"BvsEquiv2"
"hsa-miR-302b-3p","CRp",7.56626929441457e-06,"BvsEquiv2"
"hsa-miR-302c-3p","CRp",7.95748653699206e-07,"BvsEquiv2"
"hsa-miR-30a-5p","CRp",7.88702615492029e-07,"BvsEquiv2"
"hsa-miR-30b-5p","CRp",6.33993450174888e-07,"BvsEquiv2"
"hsa-miR-30c-5p","CRp",3.03065301450329e-06,"BvsEquiv2"
"hsa-miR-30d-5p","CRp",6.69075584121831e-07,"BvsEquiv2"
"hsa-miR-30e-3p","CRp",8.68524964162835e-08,"BvsEquiv2"
"hsa-miR-3184-3p","CRp",0.0536132975243716,"BvsEquiv2"
"hsa-miR-3184-5p","CRp",2.56190588287486e-05,"BvsEquiv2"
"hsa-miR-32-5p","CRp",1.17033390731216e-06,"BvsEquiv2"
"hsa-miR-320a","CRp",1.81559015407371e-05,"BvsEquiv2"
"hsa-mir-320b-1","CRp",8.88089629576438e-05,"BvsEquiv2"
"hsa-mir-320c-1","CRp",5.78580111512888e-08,"BvsEquiv2"
"hsa-miR-320d","CRp",8.82214358111206e-08,"BvsEquiv2"
"hsa-miR-323a-3p","CRp",4.08981054140396e-07,"BvsEquiv2"
"hsa-miR-323b-3p","CRp",6.23339311857383e-08,"BvsEquiv2"
"hsa-miR-324-3p","CRp",2.33075856507146e-09,"BvsEquiv2"
"hsa-miR-324-5p","CRp",4.12140371308745e-06,"BvsEquiv2"
"hsa-miR-326","CRp",3.34440874763328e-12,"BvsEquiv2"
"hsa-miR-330-3p","CRp",1.58370193259122e-05,"BvsEquiv2"
"hsa-miR-331-3p","CRp",3.74608656334147e-09,"BvsEquiv2"
"hsa-miR-335-5p","CRp",0.00104254182073701,"BvsEquiv2"
"hsa-miR-338-3p","CRp",4.83107150020764e-05,"BvsEquiv2"
"hsa-miR-338-5p","CRp",0.00164266886653553,"BvsEquiv2"
"hsa-miR-339-5p","CRp",4.21730944116051e-05,"BvsEquiv2"
"hsa-miR-33a-5p","CRp",3.42856046298048e-05,"BvsEquiv2"
"hsa-miR-340-3p","CRp",3.97921941836216e-07,"BvsEquiv2"
"hsa-miR-340-5p","CRp",0.000699805516771365,"BvsEquiv2"
"hsa-miR-342-3p","CRp",9.82772572958482e-05,"BvsEquiv2"
"hsa-miR-342-5p","CRp",5.00006680303115e-07,"BvsEquiv2"
"hsa-miR-345-5p","CRp",1.40323032643824e-07,"BvsEquiv2"
"hsa-miR-346","CRp",0.00256853325321408,"BvsEquiv2"
"hsa-miR-34a-5p","CRp",0.00955622137695821,"BvsEquiv2"
"hsa-miR-34c-5p","CRp",9.94145083175223e-05,"BvsEquiv2"
"hsa-miR-3529-3p","CRp",0.0046109248083819,"BvsEquiv2"
"hsa-miR-3591-3p","CRp",0.0333285561101288,"BvsEquiv2"
"hsa-miR-361-3p","CRp",0.00485369297075505,"BvsEquiv2"
"hsa-miR-3615","CRp",5.19725359582326e-05,"BvsEquiv2"
"hsa-miR-362-3p","CRp",3.61630187806394e-05,"BvsEquiv2"
"hsa-miR-362-5p","CRp",0.000251418189868274,"BvsEquiv2"
"hsa-miR-363-3p","CRp",1.55662410646016e-09,"BvsEquiv2"
"hsa-mir-3656","CRp",5.37886993030864e-12,"BvsEquiv2"
"hsa-miR-365a-3p","CRp",6.45106360489372e-08,"BvsEquiv2"
"hsa-miR-369-3p","CRp",1.99565153791012e-09,"BvsEquiv2"
"hsa-miR-369-5p","CRp",3.27956748328505e-09,"BvsEquiv2"
"hsa-miR-370-3p","CRp",3.65126141671249e-09,"BvsEquiv2"
"hsa-miR-373-3p","CRp",1.95222657871371e-08,"BvsEquiv2"
"hsa-miR-374a-5p","CRp",6.58958435490138e-08,"BvsEquiv2"
"hsa-miR-374b-5p","CRp",1.64840111595414e-07,"BvsEquiv2"
"hsa-miR-376a-3p","CRp",2.3025308900757e-06,"BvsEquiv2"
"hsa-miR-378a-3p","CRp",1.59133311695849e-09,"BvsEquiv2"
"hsa-miR-378b","CRp",1.7754093642372e-08,"BvsEquiv2"
"hsa-miR-378c","CRp",4.64990030740467e-08,"BvsEquiv2"
"hsa-miR-378d","CRp",8.06151486605689e-10,"BvsEquiv2"
"hsa-miR-378e","CRp",3.72235549072172e-11,"BvsEquiv2"
"hsa-mir-3929","CRp",2.92633709618763e-07,"BvsEquiv2"
"hsa-miR-409-3p","CRp",1.92008745823835e-07,"BvsEquiv2"
"hsa-miR-411-5p","CRp",1.69881877134806e-09,"BvsEquiv2"
"hsa-miR-421","CRp",3.06900224150919e-07,"BvsEquiv2"
"hsa-miR-423-5p","CRp",9.25507003765279e-08,"BvsEquiv2"
"hsa-miR-424-3p","CRp",6.47580221402422e-08,"BvsEquiv2"
"hsa-miR-425-3p","CRp",9.33204106011235e-09,"BvsEquiv2"
"hsa-miR-425-5p","CRp",1.07553077886776e-07,"BvsEquiv2"
"hsa-miR-432-5p","CRp",2.11841332056152e-08,"BvsEquiv2"
"hsa-mir-4326","CRp",2.3156615601894e-09,"BvsEquiv2"
"hsa-miR-433-3p","CRp",5.34654787889714e-08,"BvsEquiv2"
"hsa-miR-4433-3p","CRp",7.92192943907319e-08,"BvsEquiv2"
"hsa-miR-4433-5p","CRp",2.58112130284633e-09,"BvsEquiv2"
"hsa-miR-4433b-3p","CRp",2.31163199057933e-08,"BvsEquiv2"
"hsa-miR-4433b-5p","CRp",4.59650906810796e-09,"BvsEquiv2"
"hsa-miR-4440","CRp",7.92313870500945e-08,"BvsEquiv2"
"hsa-miR-4488","CRp",1.42197216766944e-15,"BvsEquiv2"
"hsa-miR-449a","CRp",6.26411479771733e-07,"BvsEquiv2"
"hsa-miR-449b","CRp",4.01081936312154e-09,"BvsEquiv2"
"hsa-miR-450a-5p","CRp",7.31754947690454e-07,"BvsEquiv2"
"hsa-miR-450b-5p","CRp",4.53772784565615e-06,"BvsEquiv2"
"hsa-miR-451a","CRp",1.18676551930061e-07,"BvsEquiv2"
"hsa-mir-451b","CRp",1.73516237437464e-07,"BvsEquiv2"
"hsa-mir-4521","CRp",8.15682569735022e-08,"BvsEquiv2"
"hsa-miR-455-3p","CRp",3.41408821974797e-09,"BvsEquiv2"
"hsa-miR-4732-5p","CRp",2.35380704490168e-08,"BvsEquiv2"
"hsa-miR-483-5p","CRp",1.45903238898634e-08,"BvsEquiv2"
"hsa-miR-484","CRp",7.9830241444871e-08,"BvsEquiv2"
"hsa-miR-485-3p","CRp",6.8365966843e-09,"BvsEquiv2"
"hsa-miR-485-5p","CRp",6.46620535340312e-10,"BvsEquiv2"
"hsa-miR-486-3p","CRp",7.43275523276808e-11,"BvsEquiv2"
"hsa-miR-486-5p","CRp",4.88214498124324e-11,"BvsEquiv2"
"hsa-miR-490-3p","CRp",5.12955465851069e-08,"BvsEquiv2"
"hsa-miR-495-3p","CRp",9.94131103501436e-07,"BvsEquiv2"
"hsa-miR-497-5p","CRp",4.73027366741173e-07,"BvsEquiv2"
"hsa-miR-499a-5p","CRp",2.41231330851364e-06,"BvsEquiv2"
"hsa-miR-499b-3p","CRp",1.80932402301882e-07,"BvsEquiv2"
"hsa-miR-500a-3p","CRp",0.00693595093961144,"BvsEquiv2"
"hsa-miR-500a-5p","CRp",3.67017297165953e-05,"BvsEquiv2"
"hsa-miR-501-3p","CRp",0.000151262081579295,"BvsEquiv2"
"hsa-miR-502-3p","CRp",0.0150268810507753,"BvsEquiv2"
"hsa-miR-532-3p","CRp",4.57071221842537e-07,"BvsEquiv2"
"hsa-miR-532-5p","CRp",5.92484019249394e-06,"BvsEquiv2"
"hsa-miR-543","CRp",0.000181848276830409,"BvsEquiv2"
"hsa-miR-551b-3p","CRp",3.58154627540834e-06,"BvsEquiv2"
"hsa-miR-574-3p","CRp",5.37761717781804e-05,"BvsEquiv2"
"hsa-miR-576-3p","CRp",1.22757582801575e-05,"BvsEquiv2"
"hsa-miR-584-5p","CRp",2.12811854931466e-05,"BvsEquiv2"
"hsa-miR-589-5p","CRp",8.74514011582639e-06,"BvsEquiv2"
"hsa-miR-590-5p","CRp",5.23328377220073e-05,"BvsEquiv2"
"hsa-miR-605","CRp",5.9834001461631e-06,"BvsEquiv2"
"hsa-miR-615-3p","CRp",1.20751424229069e-07,"BvsEquiv2"
"hsa-miR-625-3p","CRp",1.65039204997145e-06,"BvsEquiv2"
"hsa-miR-625-5p","CRp",0.00165224060241568,"BvsEquiv2"
"hsa-miR-629-5p","CRp",5.20168471467223e-07,"BvsEquiv2"
"hsa-miR-652-3p","CRp",1.03031022297667e-05,"BvsEquiv2"
"hsa-miR-654-3p","CRp",1.06662186353757e-06,"BvsEquiv2"
"hsa-miR-660-5p","CRp",3.42418845623296e-05,"BvsEquiv2"
"hsa-miR-664a-5p","CRp",0.0182870552411094,"BvsEquiv2"
"hsa-miR-671-5p","CRp",0.000778884908997595,"BvsEquiv2"
"hsa-miR-6852-5p","CRp",1.32022354606966e-08,"BvsEquiv2"
"hsa-miR-7-5p","CRp",0.000926353361423387,"BvsEquiv2"
"hsa-miR-744-5p","CRp",3.33752383253211e-07,"BvsEquiv2"
"hsa-mir-7641-1","CRp",2.9311290242907e-09,"BvsEquiv2"
"hsa-miR-766-3p","CRp",9.13307093911255e-06,"BvsEquiv2"
"hsa-miR-766-5p","CRp",2.78556637955136e-07,"BvsEquiv2"
"hsa-miR-769-5p","CRp",6.70771592351515e-07,"BvsEquiv2"
"hsa-miR-7706","CRp",0.00134653791328748,"BvsEquiv2"
"hsa-miR-7974","CRp",0.000543436735159037,"BvsEquiv2"
"hsa-miR-874-3p","CRp",0.000166852795738971,"BvsEquiv2"
"hsa-miR-885-5p","CRp",0.000481300523233994,"BvsEquiv2"
"hsa-miR-9-5p","CRp",0.022916612343576,"BvsEquiv2"
"hsa-miR-92a-3p","CRp",0.000170532427555628,"BvsEquiv2"
"hsa-miR-92b-3p","CRp",0.000205746524610861,"BvsEquiv2"
"hsa-miR-93-3p","CRp",0.00306236603338235,"BvsEquiv2"
"hsa-miR-941","CRp",0.000676720834012049,"BvsEquiv2"
"hsa-miR-942-5p","CRp",1.33246461638503e-05,"BvsEquiv2"
"hsa-miR-96","CRp",3.78417401361196e-06,"BvsEquiv2"
"hsa-miR-98-5p","CRp",0.0101047190046816,"BvsEquiv2"
"hsa-miR-99a-5p","CRp",1.89335151717344e-06,"BvsEquiv2"
"hsa-miR-99b-5p","CRp",0.000638484971763287,"BvsEquiv2"
