"miRNA","method","p","Dataset"
"hsa-let-7a-3p","gamlssADP",8.24511819645913e-68,"BvsEqui"
"hsa-let-7a-5p","gamlssADP",6.17823331077867e-131,"BvsEqui"
"hsa-let-7b-5p","gamlssADP",1.58617173078663e-120,"BvsEqui"
"hsa-let-7c-5p","gamlssADP",1.26923773185757e-130,"BvsEqui"
"hsa-let-7d-3p","gamlssADP",5.54147920872017e-128,"BvsEqui"
"hsa-let-7e-5p","gamlssADP",1.1167380746997e-151,"BvsEqui"
"hsa-let-7f-5p","gamlssADP",6.23042989770908e-128,"BvsEqui"
"hsa-let-7g-5p","gamlssADP",3.2206686030226e-109,"BvsEqui"
"hsa-let-7i-3p","gamlssADP",6.22372935589694e-161,"BvsEqui"
"hsa-miR-1","gamlssADP",2.06337179893209e-36,"BvsEqui"
"hsa-miR-100-5p","gamlssADP",3.37173314978775e-50,"BvsEqui"
"hsa-miR-101-3p","gamlssADP",3.62409409749755e-103,"BvsEqui"
"hsa-miR-103a-3p","gamlssADP",2.4271406034888e-85,"BvsEqui"
"hsa-miR-103b","gamlssADP",1.07707874124e-130,"BvsEqui"
"hsa-miR-106b-5p","gamlssADP",2.05302634875566e-84,"BvsEqui"
"hsa-miR-107","gamlssADP",3.53009688421472e-67,"BvsEqui"
"hsa-miR-10a-5p","gamlssADP",5.26579071020071e-40,"BvsEqui"
"hsa-miR-10b-5p","gamlssADP",7.54755743958239e-18,"BvsEqui"
"hsa-miR-1180-3p","gamlssADP",1.13914764517395e-55,"BvsEqui"
"hsa-miR-122-5p","gamlssADP",5.70011193938574e-100,"BvsEqui"
"hsa-miR-1228-5p","gamlssADP",2.01851000620428e-151,"BvsEqui"
"hsa-miR-124-3p","gamlssADP",5.45029200028328e-145,"BvsEqui"
"hsa-miR-1246","gamlssADP",1.37737782234847e-160,"BvsEqui"
"hsa-miR-125a-5p","gamlssADP",1.59750196580198e-55,"BvsEqui"
"hsa-miR-125b-5p","gamlssADP",1.53481569694531e-39,"BvsEqui"
"hsa-miR-126-3p","gamlssADP",2.71303684970787e-64,"BvsEqui"
"hsa-miR-126-5p","gamlssADP",5.05179605279355e-79,"BvsEqui"
"hsa-miR-127-3p","gamlssADP",1.02884879716507e-80,"BvsEqui"
"hsa-mir-1273a","gamlssADP",1.65286141898305e-29,"BvsEqui"
"hsa-miR-1273g-3p","gamlssADP",6.24810393703076e-82,"BvsEqui"
"hsa-mir-128-1-3p","gamlssADP",1.75522477358643e-74,"BvsEqui"
"hsa-miR-129-3p","gamlssADP",1.21973782506964e-76,"BvsEqui"
"hsa-miR-129-5p","gamlssADP",4.07271836012146e-73,"BvsEqui"
"hsa-miR-1301-3p","gamlssADP",4.05603316951296e-37,"BvsEqui"
"hsa-mir-1306-5p","gamlssADP",1.42967072113021e-62,"BvsEqui"
"hsa-miR-1307-3p","gamlssADP",1.17067996754362e-70,"BvsEqui"
"hsa-miR-1307-5p","gamlssADP",9.78353484341468e-63,"BvsEqui"
"hsa-miR-130a-3p","gamlssADP",1.81318619468927e-56,"BvsEqui"
"hsa-miR-130b-3p","gamlssADP",1.88929242271178e-59,"BvsEqui"
"hsa-miR-130b-5p","gamlssADP",2.12567416972869e-62,"BvsEqui"
"hsa-miR-132-3p","gamlssADP",2.15346028251042e-75,"BvsEqui"
"hsa-miR-132-5p","gamlssADP",5.96015928189627e-78,"BvsEqui"
"hsa-miR-133a-3p","gamlssADP",1.61738897501892e-72,"BvsEqui"
"hsa-miR-133a-5p","gamlssADP",2.9773512044394e-28,"BvsEqui"
"hsa-miR-133b","gamlssADP",8.26149674269311e-58,"BvsEqui"
"hsa-miR-134-5p","gamlssADP",5.15511625264909e-69,"BvsEqui"
"hsa-miR-136-3p","gamlssADP",3.02774435419562e-43,"BvsEqui"
"hsa-miR-136-5p","gamlssADP",2.75851601967048e-62,"BvsEqui"
"hsa-miR-139-3p","gamlssADP",1.58205636654195e-06,"BvsEqui"
"hsa-miR-139-5p","gamlssADP",2.03962969896157e-13,"BvsEqui"
"hsa-miR-140-3p","gamlssADP",3.22526601788095e-07,"BvsEqui"
"hsa-miR-140-5p","gamlssADP",2.29052121339187e-07,"BvsEqui"
"hsa-miR-141-3p","gamlssADP",6.46774412226494e-08,"BvsEqui"
"hsa-miR-142-3p","gamlssADP",5.38078851703787e-08,"BvsEqui"
"hsa-miR-142-5p","gamlssADP",1.0836309563515e-06,"BvsEqui"
"hsa-miR-143-3p","gamlssADP",6.79639504038478e-07,"BvsEqui"
"hsa-miR-144-3p","gamlssADP",3.19952438908671e-06,"BvsEqui"
"hsa-miR-144-5p","gamlssADP",1.79986582699512e-06,"BvsEqui"
"hsa-miR-145-3p","gamlssADP",3.83358109806862e-06,"BvsEqui"
"hsa-miR-145-5p","gamlssADP",1.2390801398892e-08,"BvsEqui"
"hsa-mir-146a-5p","gamlssADP",1.86708349807773e-07,"BvsEqui"
"hsa-miR-146b-5p","gamlssADP",1.01606100612884e-07,"BvsEqui"
"hsa-miR-148a-3p","gamlssADP",2.18111806793483e-07,"BvsEqui"
"hsa-miR-148a-5p","gamlssADP",2.35684425214918e-07,"BvsEqui"
"hsa-miR-148b-3p","gamlssADP",0.0130279591370337,"BvsEqui"
"hsa-miR-150-5p","gamlssADP",7.78150835151745e-09,"BvsEqui"
"hsa-miR-151a-3p","gamlssADP",8.07331266187396e-11,"BvsEqui"
"hsa-miR-151a-5p","gamlssADP",1.89080442826608e-09,"BvsEqui"
"hsa-miR-152-3p","gamlssADP",1.04928948680575e-08,"BvsEqui"
"hsa-miR-154-5p","gamlssADP",2.6390306998471e-08,"BvsEqui"
"hsa-miR-155-5p","gamlssADP",1.37448341922118e-08,"BvsEqui"
"hsa-miR-15a-5p","gamlssADP",9.47441604689861e-06,"BvsEqui"
"hsa-miR-15b-3p","gamlssADP",5.3662328137597e-06,"BvsEqui"
"hsa-miR-15b-5p","gamlssADP",0.00027165752779575,"BvsEqui"
"hsa-miR-16-5p","gamlssADP",1.44235792828517e-10,"BvsEqui"
"hsa-miR-17-3p","gamlssADP",2.46149574654526e-13,"BvsEqui"
"hsa-miR-17-5p","gamlssADP",8.25766862899017e-10,"BvsEqui"
"hsa-miR-181a-2-5p","gamlssADP",7.50223450275549e-10,"BvsEqui"
"hsa-miR-181b-1-5p","gamlssADP",1.0696378889014e-10,"BvsEqui"
"hsa-miR-182-5p","gamlssADP",6.04800071277466e-09,"BvsEqui"
"hsa-miR-183-5p","gamlssADP",1.07296601578398e-05,"BvsEqui"
"hsa-miR-184","gamlssADP",3.97396523908841e-07,"BvsEqui"
"hsa-miR-185-3p","gamlssADP",1.43947018897697e-07,"BvsEqui"
"hsa-miR-185-5p","gamlssADP",1.31141653373683e-20,"BvsEqui"
"hsa-miR-186-5p","gamlssADP",1.74562594320733e-13,"BvsEqui"
"hsa-miR-188-3p","gamlssADP",1.05281907101543e-12,"BvsEqui"
"hsa-miR-188-5p","gamlssADP",2.54923959300242e-12,"BvsEqui"
"hsa-miR-18a-3p","gamlssADP",9.65324911988859e-09,"BvsEqui"
"hsa-miR-18a-5p","gamlssADP",9.97008927172462e-10,"BvsEqui"
"hsa-miR-18b-5p","gamlssADP",2.77921374200402e-10,"BvsEqui"
"hsa-miR-1908-5p","gamlssADP",1.65380775815935e-10,"BvsEqui"
"hsa-miR-190a-5p","gamlssADP",8.43334641060963e-10,"BvsEqui"
"hsa-miR-191-5p","gamlssADP",1.06227106772643e-06,"BvsEqui"
"hsa-miR-192-5p","gamlssADP",5.98373632008899e-17,"BvsEqui"
"hsa-miR-193a-5p","gamlssADP",7.35754324190679e-06,"BvsEqui"
"hsa-miR-193b-3p","gamlssADP",1.28236211780531e-12,"BvsEqui"
"hsa-miR-193b-5p","gamlssADP",4.3407493571165e-157,"BvsEqui"
"hsa-miR-195-5p","gamlssADP",2.93313816589022e-145,"BvsEqui"
"hsa-miR-196b-5p","gamlssADP",7.58950669491569e-120,"BvsEqui"
"hsa-miR-197-3p","gamlssADP",5.91412529741462e-176,"BvsEqui"
"hsa-miR-199b-3p","gamlssADP",1.93705929512466e-145,"BvsEqui"
"hsa-miR-199b-5p","gamlssADP",1.99460083345844e-50,"BvsEqui"
"hsa-miR-19a-3p","gamlssADP",9.18968844845021e-143,"BvsEqui"
"hsa-miR-19b-3p","gamlssADP",2.98126181529856e-158,"BvsEqui"
"hsa-miR-200a-3p","gamlssADP",7.71517826458815e-60,"BvsEqui"
"hsa-miR-200b-3p","gamlssADP",2.35989308364442e-82,"BvsEqui"
"hsa-miR-200c-3p","gamlssADP",1.12812839207094e-110,"BvsEqui"
"hsa-miR-203b-5p","gamlssADP",4.71850895785625e-82,"BvsEqui"
"hsa-miR-204-3p","gamlssADP",6.46664595912636e-116,"BvsEqui"
"hsa-miR-205-5p","gamlssADP",1.08971819192875e-123,"BvsEqui"
"hsa-miR-208a","gamlssADP",9.47598001938208e-155,"BvsEqui"
"hsa-miR-20a-3p","gamlssADP",7.4775269065977e-112,"BvsEqui"
"hsa-miR-20a-5p","gamlssADP",1.62991103527705e-55,"BvsEqui"
"hsa-miR-20b-5p","gamlssADP",2.37171661108936e-122,"BvsEqui"
"hsa-miR-21-5p","gamlssADP",3.96550676052391e-49,"BvsEqui"
"hsa-miR-210-3p","gamlssADP",3.6707261282951e-148,"BvsEqui"
"hsa-miR-211-5p","gamlssADP",7.06647373879979e-156,"BvsEqui"
"hsa-miR-2110","gamlssADP",2.3252680258087e-125,"BvsEqui"
"hsa-miR-212-3p","gamlssADP",1.22343158220252e-139,"BvsEqui"
"hsa-miR-214","gamlssADP",6.84959148205957e-157,"BvsEqui"
"hsa-miR-215-5p","gamlssADP",2.41898177806304e-48,"BvsEqui"
"hsa-miR-218-5p","gamlssADP",1.03235453507652e-53,"BvsEqui"
"hsa-miR-22-3p","gamlssADP",3.54025158955659e-62,"BvsEqui"
"hsa-miR-221-3p","gamlssADP",1.08677618870745e-43,"BvsEqui"
"hsa-miR-222-3p","gamlssADP",7.83705132663388e-69,"BvsEqui"
"hsa-miR-223-3p","gamlssADP",1.10482902606721e-112,"BvsEqui"
"hsa-miR-223-5p","gamlssADP",3.37357910094712e-80,"BvsEqui"
"hsa-miR-224-5p","gamlssADP",3.94051939942429e-61,"BvsEqui"
"hsa-miR-2355-3p","gamlssADP",2.32820145177185e-57,"BvsEqui"
"hsa-miR-23a-3p","gamlssADP",1.50033667561742e-51,"BvsEqui"
"hsa-miR-23b-3p","gamlssADP",1.01980487956939e-64,"BvsEqui"
"hsa-miR-24-3p","gamlssADP",1.66503393476251e-65,"BvsEqui"
"hsa-miR-25-3p","gamlssADP",4.65603078436093e-57,"BvsEqui"
"hsa-miR-26a-5p","gamlssADP",2.93680200038977e-33,"BvsEqui"
"hsa-miR-26b-5p","gamlssADP",6.28528528733154e-35,"BvsEqui"
"hsa-miR-27a-3p","gamlssADP",4.01800182338653e-68,"BvsEqui"
"hsa-miR-27b-3p","gamlssADP",5.95047142150475e-44,"BvsEqui"
"hsa-miR-28-3p","gamlssADP",7.70088522778795e-69,"BvsEqui"
"hsa-miR-28-5p","gamlssADP",8.78293305339179e-72,"BvsEqui"
"hsa-miR-296-5p","gamlssADP",1.38914672852645e-62,"BvsEqui"
"hsa-miR-299-3p","gamlssADP",1.90439724126494e-59,"BvsEqui"
"hsa-miR-299-5p","gamlssADP",4.6949200631116e-56,"BvsEqui"
"hsa-miR-29a-3p","gamlssADP",3.18692498375805e-09,"BvsEqui"
"hsa-miR-29a-5p","gamlssADP",2.2620779754772e-07,"BvsEqui"
"hsa-miR-29b-2-5p","gamlssADP",2.23651289608313e-08,"BvsEqui"
"hsa-miR-29b-3p","gamlssADP",6.44107559177997e-10,"BvsEqui"
"hsa-miR-29c-3p","gamlssADP",4.96804543562632e-09,"BvsEqui"
"hsa-miR-301a-3p","gamlssADP",3.63944998550038e-06,"BvsEqui"
"hsa-miR-301b","gamlssADP",9.77042263187586e-07,"BvsEqui"
"hsa-miR-302a-3p","gamlssADP",1.76152581327061e-09,"BvsEqui"
"hsa-miR-302b-3p","gamlssADP",1.98279126577854e-10,"BvsEqui"
"hsa-miR-302c-3p","gamlssADP",1.03360664658183e-13,"BvsEqui"
"hsa-miR-30a-5p","gamlssADP",4.36461447390759e-10,"BvsEqui"
"hsa-miR-30b-5p","gamlssADP",2.54078027026936e-13,"BvsEqui"
"hsa-miR-30c-5p","gamlssADP",1.42242847863985e-11,"BvsEqui"
"hsa-miR-30d-5p","gamlssADP",1.88933585560081e-08,"BvsEqui"
"hsa-miR-30e-3p","gamlssADP",2.65806365248702e-10,"BvsEqui"
"hsa-miR-3184-3p","gamlssADP",0.555274523110515,"BvsEqui"
"hsa-miR-3184-5p","gamlssADP",3.01822059803139e-07,"BvsEqui"
"hsa-miR-32-5p","gamlssADP",2.56978649378581e-11,"BvsEqui"
"hsa-miR-320a","gamlssADP",3.381321366501e-05,"BvsEqui"
"hsa-mir-320b-1","gamlssADP",0.000100457830049416,"BvsEqui"
"hsa-mir-320c-1","gamlssADP",2.74795564712263e-11,"BvsEqui"
"hsa-miR-320d","gamlssADP",1.92144232687785e-16,"BvsEqui"
"hsa-miR-323a-3p","gamlssADP",1.85270514530601e-17,"BvsEqui"
"hsa-miR-323b-3p","gamlssADP",8.33723177143454e-36,"BvsEqui"
"hsa-miR-324-3p","gamlssADP",4.79237296579973e-08,"BvsEqui"
"hsa-miR-324-5p","gamlssADP",1.79976756422339e-12,"BvsEqui"
"hsa-miR-326","gamlssADP",4.74214083430805e-13,"BvsEqui"
"hsa-miR-330-3p","gamlssADP",5.30643244462566e-15,"BvsEqui"
"hsa-miR-331-3p","gamlssADP",8.02226483048057e-15,"BvsEqui"
"hsa-miR-335-5p","gamlssADP",1.73369630136197e-07,"BvsEqui"
"hsa-miR-338-3p","gamlssADP",1.66151848010751e-25,"BvsEqui"
"hsa-miR-338-5p","gamlssADP",3.91469632230304e-11,"BvsEqui"
"hsa-miR-339-5p","gamlssADP",1.27817611335188e-09,"BvsEqui"
"hsa-miR-33a-5p","gamlssADP",1.47406269272655e-10,"BvsEqui"
"hsa-miR-340-3p","gamlssADP",1.44291919255057e-11,"BvsEqui"
"hsa-miR-340-5p","gamlssADP",4.57490856847764e-06,"BvsEqui"
"hsa-miR-342-3p","gamlssADP",1.32609983357611e-20,"BvsEqui"
"hsa-miR-342-5p","gamlssADP",3.51369974191241e-12,"BvsEqui"
"hsa-miR-345-5p","gamlssADP",1.28202742390068e-11,"BvsEqui"
"hsa-miR-346","gamlssADP",9.80430221263084e-06,"BvsEqui"
"hsa-miR-34a-5p","gamlssADP",9.62114382360085e-09,"BvsEqui"
"hsa-miR-34c-5p","gamlssADP",1.63482396227533e-08,"BvsEqui"
"hsa-miR-3529-3p","gamlssADP",2.19976314260212e-09,"BvsEqui"
"hsa-miR-3591-3p","gamlssADP",9.72919378800396e-05,"BvsEqui"
"hsa-miR-361-3p","gamlssADP",6.14330921336535e-07,"BvsEqui"
"hsa-miR-3615","gamlssADP",5.95125835633547e-12,"BvsEqui"
"hsa-miR-362-3p","gamlssADP",4.81311331606993e-19,"BvsEqui"
"hsa-miR-362-5p","gamlssADP",3.71198062346215e-16,"BvsEqui"
"hsa-miR-363-3p","gamlssADP",3.77932592546229e-44,"BvsEqui"
"hsa-mir-3656","gamlssADP",6.67884244884115e-154,"BvsEqui"
"hsa-miR-365a-3p","gamlssADP",6.06255002972862e-67,"BvsEqui"
"hsa-miR-369-3p","gamlssADP",8.85994936742677e-62,"BvsEqui"
"hsa-miR-369-5p","gamlssADP",4.50364791741217e-159,"BvsEqui"
"hsa-miR-370-3p","gamlssADP",1.03658507349786e-162,"BvsEqui"
"hsa-miR-373-3p","gamlssADP",1.62967577649967e-30,"BvsEqui"
"hsa-miR-374a-5p","gamlssADP",1.29123832734017e-81,"BvsEqui"
"hsa-miR-374b-5p","gamlssADP",4.94405181835975e-124,"BvsEqui"
"hsa-miR-376a-3p","gamlssADP",9.86109162522659e-64,"BvsEqui"
"hsa-miR-378a-3p","gamlssADP",3.2276971170261e-168,"BvsEqui"
"hsa-miR-378b","gamlssADP",1.20391804495244e-155,"BvsEqui"
"hsa-miR-378c","gamlssADP",9.08543008876482e-139,"BvsEqui"
"hsa-miR-378d","gamlssADP",2.92888650631305e-120,"BvsEqui"
"hsa-miR-378e","gamlssADP",8.86264276344234e-184,"BvsEqui"
"hsa-mir-3929","gamlssADP",1.39624799283514e-162,"BvsEqui"
"hsa-miR-409-3p","gamlssADP",1.75510630106223e-113,"BvsEqui"
"hsa-miR-411-5p","gamlssADP",6.77835655490808e-188,"BvsEqui"
"hsa-miR-421","gamlssADP",2.15116966662932e-32,"BvsEqui"
"hsa-miR-423-5p","gamlssADP",1.02823583985633e-128,"BvsEqui"
"hsa-miR-424-3p","gamlssADP",1.43471985246823e-98,"BvsEqui"
"hsa-miR-425-3p","gamlssADP",2.19384834388592e-180,"BvsEqui"
"hsa-miR-425-5p","gamlssADP",1.77270072765895e-154,"BvsEqui"
"hsa-miR-432-5p","gamlssADP",2.20405933742777e-132,"BvsEqui"
"hsa-mir-4326","gamlssADP",4.38448232005541e-65,"BvsEqui"
"hsa-miR-433-3p","gamlssADP",2.49950122452668e-50,"BvsEqui"
"hsa-miR-4433-3p","gamlssADP",2.91638450185689e-27,"BvsEqui"
"hsa-miR-4433-5p","gamlssADP",8.48279472355988e-94,"BvsEqui"
"hsa-miR-4433b-3p","gamlssADP",1.61821228279727e-45,"BvsEqui"
"hsa-miR-4433b-5p","gamlssADP",1.20276593022315e-89,"BvsEqui"
"hsa-miR-4440","gamlssADP",1.06532775803268e-40,"BvsEqui"
"hsa-miR-4488","gamlssADP",1.60198818527984e-77,"BvsEqui"
"hsa-miR-449a","gamlssADP",2.40488097798897e-53,"BvsEqui"
"hsa-miR-449b","gamlssADP",6.26583735017529e-61,"BvsEqui"
"hsa-miR-450a-5p","gamlssADP",1.49748261283512e-45,"BvsEqui"
"hsa-miR-450b-5p","gamlssADP",5.8125895025329e-50,"BvsEqui"
"hsa-miR-451a","gamlssADP",1.99240207797114e-52,"BvsEqui"
"hsa-mir-451b","gamlssADP",1.08913902085737e-44,"BvsEqui"
"hsa-mir-4521","gamlssADP",3.87850100709862e-33,"BvsEqui"
"hsa-miR-455-3p","gamlssADP",1.89472212106968e-60,"BvsEqui"
"hsa-miR-4732-5p","gamlssADP",1.40061419256219e-53,"BvsEqui"
"hsa-miR-483-5p","gamlssADP",5.06244754183784e-54,"BvsEqui"
"hsa-miR-484","gamlssADP",1.84148336291017e-66,"BvsEqui"
"hsa-miR-485-3p","gamlssADP",6.10434457252755e-67,"BvsEqui"
"hsa-miR-485-5p","gamlssADP",1.20103095255708e-42,"BvsEqui"
"hsa-miR-486-3p","gamlssADP",1.47695101625283e-67,"BvsEqui"
"hsa-miR-486-5p","gamlssADP",4.10387039404255e-64,"BvsEqui"
"hsa-miR-490-3p","gamlssADP",4.09056497237764e-57,"BvsEqui"
"hsa-miR-495-3p","gamlssADP",2.12122776766266e-12,"BvsEqui"
"hsa-miR-497-5p","gamlssADP",1.60411620558202e-06,"BvsEqui"
"hsa-miR-499a-5p","gamlssADP",8.21241565939692e-12,"BvsEqui"
"hsa-miR-499b-3p","gamlssADP",2.37772852841371e-08,"BvsEqui"
"hsa-miR-500a-3p","gamlssADP",0.0131221379138806,"BvsEqui"
"hsa-miR-500a-5p","gamlssADP",4.32968104560438e-10,"BvsEqui"
"hsa-miR-501-3p","gamlssADP",1.03870784026001e-08,"BvsEqui"
"hsa-miR-502-3p","gamlssADP",0.0354286114238375,"BvsEqui"
"hsa-miR-532-3p","gamlssADP",1.69662863544104e-13,"BvsEqui"
"hsa-miR-532-5p","gamlssADP",9.99287896902477e-09,"BvsEqui"
"hsa-miR-543","gamlssADP",5.62528642972418e-07,"BvsEqui"
"hsa-miR-551b-3p","gamlssADP",3.1409318461321e-06,"BvsEqui"
"hsa-miR-574-3p","gamlssADP",4.47293326448336e-07,"BvsEqui"
"hsa-miR-576-3p","gamlssADP",3.8422116770919e-09,"BvsEqui"
"hsa-miR-584-5p","gamlssADP",1.95313599080387e-10,"BvsEqui"
"hsa-miR-589-5p","gamlssADP",1.2626866620657e-09,"BvsEqui"
"hsa-miR-590-5p","gamlssADP",1.17567667698206e-07,"BvsEqui"
"hsa-miR-605","gamlssADP",6.87046263651769e-32,"BvsEqui"
"hsa-miR-615-3p","gamlssADP",2.91685004275092e-13,"BvsEqui"
"hsa-miR-625-3p","gamlssADP",1.41033699549415e-11,"BvsEqui"
"hsa-miR-625-5p","gamlssADP",0.00160129525596438,"BvsEqui"
"hsa-miR-629-5p","gamlssADP",5.0336114456456e-08,"BvsEqui"
"hsa-miR-652-3p","gamlssADP",1.19248149860536e-08,"BvsEqui"
"hsa-miR-654-3p","gamlssADP",1.23809439961288e-14,"BvsEqui"
"hsa-miR-660-5p","gamlssADP",1.25015522774667e-09,"BvsEqui"
"hsa-miR-664a-5p","gamlssADP",1.1168602050292e-07,"BvsEqui"
"hsa-miR-671-5p","gamlssADP",1.1149351753039e-06,"BvsEqui"
"hsa-miR-6852-5p","gamlssADP",7.47656628803117e-19,"BvsEqui"
"hsa-miR-7-5p","gamlssADP",2.96868334109516e-08,"BvsEqui"
"hsa-miR-744-5p","gamlssADP",4.365894184905e-18,"BvsEqui"
"hsa-mir-7641-1","gamlssADP",1.85207571246493e-13,"BvsEqui"
"hsa-miR-766-3p","gamlssADP",1.84485183528537e-09,"BvsEqui"
"hsa-miR-766-5p","gamlssADP",3.09517915120485e-15,"BvsEqui"
"hsa-miR-769-5p","gamlssADP",3.2473886528382e-11,"BvsEqui"
"hsa-miR-7706","gamlssADP",9.55817142406209e-10,"BvsEqui"
"hsa-miR-7974","gamlssADP",5.97643927930889e-09,"BvsEqui"
"hsa-miR-874-3p","gamlssADP",2.14692899728925e-12,"BvsEqui"
"hsa-miR-885-5p","gamlssADP",1.47233699666247e-13,"BvsEqui"
"hsa-miR-9-5p","gamlssADP",0.000359547180160868,"BvsEqui"
"hsa-miR-92a-3p","gamlssADP",1.35905607556978e-06,"BvsEqui"
"hsa-miR-92b-3p","gamlssADP",1.26556732840522e-05,"BvsEqui"
"hsa-miR-93-3p","gamlssADP",0.000152656856128032,"BvsEqui"
"hsa-miR-941","gamlssADP",1.44128869330716e-05,"BvsEqui"
"hsa-miR-942-5p","gamlssADP",3.02498740338499e-20,"BvsEqui"
"hsa-miR-96","gamlssADP",5.45783895774289e-10,"BvsEqui"
"hsa-miR-98-5p","gamlssADP",5.14752607406908e-08,"BvsEqui"
"hsa-miR-99a-5p","gamlssADP",3.30793501236567e-10,"BvsEqui"
"hsa-miR-99b-5p","gamlssADP",1.18948090174635e-05,"BvsEqui"
"hsa-let-7a-3p","CRp",5.40460070362611e-12,"BvsEqui"
"hsa-let-7a-5p","CRp",1.00563288620259e-08,"BvsEqui"
"hsa-let-7b-5p","CRp",8.32033508178383e-08,"BvsEqui"
"hsa-let-7c-5p","CRp",9.90529625512589e-08,"BvsEqui"
"hsa-let-7d-3p","CRp",7.90698050152882e-09,"BvsEqui"
"hsa-let-7e-5p","CRp",3.99646323439093e-08,"BvsEqui"
"hsa-let-7f-5p","CRp",7.55921967547938e-08,"BvsEqui"
"hsa-let-7g-5p","CRp",2.50493759938242e-07,"BvsEqui"
"hsa-let-7i-3p","CRp",1.39085327272267e-08,"BvsEqui"
"hsa-miR-1","CRp",6.62205151801361e-07,"BvsEqui"
"hsa-miR-100-5p","CRp",1.95886512702846e-10,"BvsEqui"
"hsa-miR-101-3p","CRp",2.88322952797178e-13,"BvsEqui"
"hsa-miR-103a-3p","CRp",2.58418831715624e-07,"BvsEqui"
"hsa-miR-103b","CRp",1.34893170258192e-07,"BvsEqui"
"hsa-miR-106b-5p","CRp",7.67844780377491e-09,"BvsEqui"
"hsa-miR-107","CRp",8.52268180093848e-10,"BvsEqui"
"hsa-miR-10a-5p","CRp",3.3853824983489e-06,"BvsEqui"
"hsa-miR-10b-5p","CRp",2.90671316261862e-06,"BvsEqui"
"hsa-miR-1180-3p","CRp",5.5971137286869e-08,"BvsEqui"
"hsa-miR-122-5p","CRp",1.26328862425173e-08,"BvsEqui"
"hsa-miR-1228-5p","CRp",4.6497898221299e-09,"BvsEqui"
"hsa-miR-124-3p","CRp",1.3731669261252e-15,"BvsEqui"
"hsa-miR-1246","CRp",3.85718080260451e-09,"BvsEqui"
"hsa-miR-125a-5p","CRp",5.92309698082767e-07,"BvsEqui"
"hsa-miR-125b-5p","CRp",3.05753400579755e-08,"BvsEqui"
"hsa-miR-126-3p","CRp",2.32798739197776e-08,"BvsEqui"
"hsa-miR-126-5p","CRp",6.46794298223367e-10,"BvsEqui"
"hsa-miR-127-3p","CRp",3.66158311548485e-10,"BvsEqui"
"hsa-mir-1273a","CRp",1.60468001067782e-06,"BvsEqui"
"hsa-miR-1273g-3p","CRp",6.04575152033381e-10,"BvsEqui"
"hsa-mir-128-1-3p","CRp",8.18849281640163e-09,"BvsEqui"
"hsa-miR-129-3p","CRp",1.44530806787219e-08,"BvsEqui"
"hsa-miR-129-5p","CRp",1.73884306352045e-08,"BvsEqui"
"hsa-miR-1301-3p","CRp",3.85148811208382e-06,"BvsEqui"
"hsa-mir-1306-5p","CRp",4.77945146285362e-09,"BvsEqui"
"hsa-miR-1307-3p","CRp",1.70966277240936e-10,"BvsEqui"
"hsa-miR-1307-5p","CRp",1.41538816759808e-09,"BvsEqui"
"hsa-miR-130a-3p","CRp",1.08417506592185e-11,"BvsEqui"
"hsa-miR-130b-3p","CRp",7.1947946394247e-10,"BvsEqui"
"hsa-miR-130b-5p","CRp",1.71687767021122e-08,"BvsEqui"
"hsa-miR-132-3p","CRp",8.08846497457678e-09,"BvsEqui"
"hsa-miR-132-5p","CRp",1.94748926458193e-08,"BvsEqui"
"hsa-miR-133a-3p","CRp",2.17239800241756e-08,"BvsEqui"
"hsa-miR-133a-5p","CRp",2.01693806299189e-08,"BvsEqui"
"hsa-miR-133b","CRp",1.31472427873857e-08,"BvsEqui"
"hsa-miR-134-5p","CRp",7.33546650654096e-09,"BvsEqui"
"hsa-miR-136-3p","CRp",9.34652597573941e-07,"BvsEqui"
"hsa-miR-136-5p","CRp",5.26978889395708e-07,"BvsEqui"
"hsa-miR-139-3p","CRp",0.000150550773795449,"BvsEqui"
"hsa-miR-139-5p","CRp",3.4373781097673e-05,"BvsEqui"
"hsa-miR-140-3p","CRp",6.82667608997419e-07,"BvsEqui"
"hsa-miR-140-5p","CRp",2.82886046671918e-05,"BvsEqui"
"hsa-miR-141-3p","CRp",6.93878763620994e-06,"BvsEqui"
"hsa-miR-142-3p","CRp",3.65718846541121e-05,"BvsEqui"
"hsa-miR-142-5p","CRp",1.09935480104904e-06,"BvsEqui"
"hsa-miR-143-3p","CRp",2.16172794002511e-06,"BvsEqui"
"hsa-miR-144-3p","CRp",2.51410559823546e-07,"BvsEqui"
"hsa-miR-144-5p","CRp",0.000109650188127807,"BvsEqui"
"hsa-miR-145-3p","CRp",0.0017805716118924,"BvsEqui"
"hsa-miR-145-5p","CRp",5.06345130429745e-05,"BvsEqui"
"hsa-mir-146a-5p","CRp",1.24610704303059e-05,"BvsEqui"
"hsa-miR-146b-5p","CRp",1.50290298564425e-05,"BvsEqui"
"hsa-miR-148a-3p","CRp",3.78342204952614e-05,"BvsEqui"
"hsa-miR-148a-5p","CRp",2.04736294267642e-05,"BvsEqui"
"hsa-miR-148b-3p","CRp",0.0231759519189492,"BvsEqui"
"hsa-miR-150-5p","CRp",4.02868309481461e-06,"BvsEqui"
"hsa-miR-151a-3p","CRp",4.62160249169795e-07,"BvsEqui"
"hsa-miR-151a-5p","CRp",1.07978058057866e-05,"BvsEqui"
"hsa-miR-152-3p","CRp",2.3765144833963e-07,"BvsEqui"
"hsa-miR-154-5p","CRp",4.31392154777861e-06,"BvsEqui"
"hsa-miR-155-5p","CRp",0.00189622456855629,"BvsEqui"
"hsa-miR-15a-5p","CRp",0.000191622910783471,"BvsEqui"
"hsa-miR-15b-3p","CRp",0.0160080417776891,"BvsEqui"
"hsa-miR-15b-5p","CRp",0.00675624986190173,"BvsEqui"
"hsa-miR-16-5p","CRp",6.84549044874867e-05,"BvsEqui"
"hsa-miR-17-3p","CRp",0.00012436487643097,"BvsEqui"
"hsa-miR-17-5p","CRp",0.000491020540995908,"BvsEqui"
"hsa-miR-181a-2-5p","CRp",2.45275598425995e-05,"BvsEqui"
"hsa-miR-181b-1-5p","CRp",2.98351661079192e-05,"BvsEqui"
"hsa-miR-182-5p","CRp",0.00419148992313914,"BvsEqui"
"hsa-miR-183-5p","CRp",0.00875450125851673,"BvsEqui"
"hsa-miR-184","CRp",0.0011778421071185,"BvsEqui"
"hsa-miR-185-3p","CRp",0.000846365513800577,"BvsEqui"
"hsa-miR-185-5p","CRp",9.514390342013e-05,"BvsEqui"
"hsa-miR-186-5p","CRp",3.43101063514587e-07,"BvsEqui"
"hsa-miR-188-3p","CRp",9.51097096754517e-07,"BvsEqui"
"hsa-miR-188-5p","CRp",2.47441661173957e-06,"BvsEqui"
"hsa-miR-18a-3p","CRp",0.000736142840757745,"BvsEqui"
"hsa-miR-18a-5p","CRp",0.000571747814068625,"BvsEqui"
"hsa-miR-18b-5p","CRp",0.0012620023602846,"BvsEqui"
"hsa-miR-1908-5p","CRp",9.53573161626322e-07,"BvsEqui"
"hsa-miR-190a-5p","CRp",0.00909556157264645,"BvsEqui"
"hsa-miR-191-5p","CRp",0.000302234258376184,"BvsEqui"
"hsa-miR-192-5p","CRp",0.000251521322913784,"BvsEqui"
"hsa-miR-193a-5p","CRp",0.000989253907151113,"BvsEqui"
"hsa-miR-193b-3p","CRp",0.000310489948107729,"BvsEqui"
"hsa-miR-193b-5p","CRp",1.67039824335186e-07,"BvsEqui"
"hsa-miR-195-5p","CRp",3.32906982080705e-09,"BvsEqui"
"hsa-miR-196b-5p","CRp",2.77154613031306e-08,"BvsEqui"
"hsa-miR-197-3p","CRp",2.13368085345021e-08,"BvsEqui"
"hsa-miR-199b-3p","CRp",1.54796660434614e-08,"BvsEqui"
"hsa-miR-199b-5p","CRp",4.62520185202533e-08,"BvsEqui"
"hsa-miR-19a-3p","CRp",3.24652296584666e-08,"BvsEqui"
"hsa-miR-19b-3p","CRp",5.37946925524845e-08,"BvsEqui"
"hsa-miR-200a-3p","CRp",1.19150061190265e-06,"BvsEqui"
"hsa-miR-200b-3p","CRp",8.66439919864223e-08,"BvsEqui"
"hsa-miR-200c-3p","CRp",6.33300620869146e-07,"BvsEqui"
"hsa-miR-203b-5p","CRp",1.32042833708829e-08,"BvsEqui"
"hsa-miR-204-3p","CRp",8.79455977932889e-10,"BvsEqui"
"hsa-miR-205-5p","CRp",1.65691930165016e-09,"BvsEqui"
"hsa-miR-208a","CRp",1.16913723638484e-07,"BvsEqui"
"hsa-miR-20a-3p","CRp",1.30551729788314e-08,"BvsEqui"
"hsa-miR-20a-5p","CRp",9.85968313865618e-08,"BvsEqui"
"hsa-miR-20b-5p","CRp",2.89407089203955e-08,"BvsEqui"
"hsa-miR-21-5p","CRp",4.07355998946938e-06,"BvsEqui"
"hsa-miR-210-3p","CRp",2.60845337459845e-10,"BvsEqui"
"hsa-miR-211-5p","CRp",5.67016597588012e-08,"BvsEqui"
"hsa-miR-2110","CRp",2.44520800727464e-09,"BvsEqui"
"hsa-miR-212-3p","CRp",2.56337382059446e-09,"BvsEqui"
"hsa-miR-214","CRp",4.35673681195075e-08,"BvsEqui"
"hsa-miR-215-5p","CRp",2.55067919482464e-08,"BvsEqui"
"hsa-miR-218-5p","CRp",1.93952738742152e-09,"BvsEqui"
"hsa-miR-22-3p","CRp",4.16665481956676e-10,"BvsEqui"
"hsa-miR-221-3p","CRp",3.10691978964588e-07,"BvsEqui"
"hsa-miR-222-3p","CRp",3.27866637088844e-10,"BvsEqui"
"hsa-miR-223-3p","CRp",1.99290404479625e-07,"BvsEqui"
"hsa-miR-223-5p","CRp",2.66272810472205e-08,"BvsEqui"
"hsa-miR-224-5p","CRp",5.51173750262811e-09,"BvsEqui"
"hsa-miR-2355-3p","CRp",2.72545376030852e-08,"BvsEqui"
"hsa-miR-23a-3p","CRp",3.53078736588751e-08,"BvsEqui"
"hsa-miR-23b-3p","CRp",2.24829068153403e-08,"BvsEqui"
"hsa-miR-24-3p","CRp",6.97747909508943e-08,"BvsEqui"
"hsa-miR-25-3p","CRp",2.91010469359005e-07,"BvsEqui"
"hsa-miR-26a-5p","CRp",9.3888534311684e-08,"BvsEqui"
"hsa-miR-26b-5p","CRp",1.19236788619683e-06,"BvsEqui"
"hsa-miR-27a-3p","CRp",4.2676751429596e-09,"BvsEqui"
"hsa-miR-27b-3p","CRp",7.98448470708232e-09,"BvsEqui"
"hsa-miR-28-3p","CRp",1.45862011794539e-07,"BvsEqui"
"hsa-miR-28-5p","CRp",2.59062060608301e-08,"BvsEqui"
"hsa-miR-296-5p","CRp",1.76487800657525e-09,"BvsEqui"
"hsa-miR-299-3p","CRp",1.6225267445633e-08,"BvsEqui"
"hsa-miR-299-5p","CRp",1.97395278722386e-09,"BvsEqui"
"hsa-miR-29a-3p","CRp",0.000171480588107103,"BvsEqui"
"hsa-miR-29a-5p","CRp",4.53023311617764e-05,"BvsEqui"
"hsa-miR-29b-2-5p","CRp",1.80155203315176e-05,"BvsEqui"
"hsa-miR-29b-3p","CRp",0.000417945773310391,"BvsEqui"
"hsa-miR-29c-3p","CRp",0.000164614129908208,"BvsEqui"
"hsa-miR-301a-3p","CRp",0.000166882389707612,"BvsEqui"
"hsa-miR-301b","CRp",0.000158319771250305,"BvsEqui"
"hsa-miR-302a-3p","CRp",7.59791303826943e-05,"BvsEqui"
"hsa-miR-302b-3p","CRp",0.000105318241879077,"BvsEqui"
"hsa-miR-302c-3p","CRp",2.53621880587515e-06,"BvsEqui"
"hsa-miR-30a-5p","CRp",8.36235947644765e-06,"BvsEqui"
"hsa-miR-30b-5p","CRp",9.17593542728125e-06,"BvsEqui"
"hsa-miR-30c-5p","CRp",9.12100032610056e-05,"BvsEqui"
"hsa-miR-30d-5p","CRp",1.40801119966212e-05,"BvsEqui"
"hsa-miR-30e-3p","CRp",1.06224747552758e-05,"BvsEqui"
"hsa-miR-3184-3p","CRp",0.61258994220095,"BvsEqui"
"hsa-miR-3184-5p","CRp",0.00575957283651895,"BvsEqui"
"hsa-miR-32-5p","CRp",3.77172685026274e-05,"BvsEqui"
"hsa-miR-320a","CRp",0.00183871964624998,"BvsEqui"
"hsa-mir-320b-1","CRp",0.00298778742662325,"BvsEqui"
"hsa-mir-320c-1","CRp",5.38613744120565e-07,"BvsEqui"
"hsa-miR-320d","CRp",5.56300039572369e-08,"BvsEqui"
"hsa-miR-323a-3p","CRp",1.14749304392923e-07,"BvsEqui"
"hsa-miR-323b-3p","CRp",4.32095058046447e-08,"BvsEqui"
"hsa-miR-324-3p","CRp",5.58890795628807e-09,"BvsEqui"
"hsa-miR-324-5p","CRp",0.000152001605619573,"BvsEqui"
"hsa-miR-326","CRp",9.21890493745618e-07,"BvsEqui"
"hsa-miR-330-3p","CRp",0.000158375796727828,"BvsEqui"
"hsa-miR-331-3p","CRp",1.47548232743996e-07,"BvsEqui"
"hsa-miR-335-5p","CRp",0.00150269975702277,"BvsEqui"
"hsa-miR-338-3p","CRp",0.000198090792265791,"BvsEqui"
"hsa-miR-338-5p","CRp",0.00245552722065176,"BvsEqui"
"hsa-miR-339-5p","CRp",0.000260720943031587,"BvsEqui"
"hsa-miR-33a-5p","CRp",7.4666308389907e-05,"BvsEqui"
"hsa-miR-340-3p","CRp",5.72635706849919e-05,"BvsEqui"
"hsa-miR-340-5p","CRp",0.00382940651381806,"BvsEqui"
"hsa-miR-342-3p","CRp",0.000439562609582663,"BvsEqui"
"hsa-miR-342-5p","CRp",2.26098147568673e-05,"BvsEqui"
"hsa-miR-345-5p","CRp",4.4673425499215e-06,"BvsEqui"
"hsa-miR-346","CRp",0.0116315417965824,"BvsEqui"
"hsa-miR-34a-5p","CRp",0.00751749503469496,"BvsEqui"
"hsa-miR-34c-5p","CRp",0.000779697258686463,"BvsEqui"
"hsa-miR-3529-3p","CRp",0.00299957783339362,"BvsEqui"
"hsa-miR-3591-3p","CRp",0.0160846053864949,"BvsEqui"
"hsa-miR-361-3p","CRp",0.0042844267874565,"BvsEqui"
"hsa-miR-3615","CRp",0.000504307747248318,"BvsEqui"
"hsa-miR-362-3p","CRp",0.000180186295535426,"BvsEqui"
"hsa-miR-362-5p","CRp",0.00108584451163482,"BvsEqui"
"hsa-miR-363-3p","CRp",9.38759428606032e-09,"BvsEqui"
"hsa-mir-3656","CRp",5.99856267203845e-10,"BvsEqui"
"hsa-miR-365a-3p","CRp",1.15100579555315e-09,"BvsEqui"
"hsa-miR-369-3p","CRp",6.0248812407856e-09,"BvsEqui"
"hsa-miR-369-5p","CRp",1.75691977362857e-08,"BvsEqui"
"hsa-miR-370-3p","CRp",3.81498378044186e-08,"BvsEqui"
"hsa-miR-373-3p","CRp",2.69687339878583e-08,"BvsEqui"
"hsa-miR-374a-5p","CRp",2.93263164158068e-07,"BvsEqui"
"hsa-miR-374b-5p","CRp",2.54047011228804e-08,"BvsEqui"
"hsa-miR-376a-3p","CRp",3.3013622078821e-07,"BvsEqui"
"hsa-miR-378a-3p","CRp",9.5506736746476e-10,"BvsEqui"
"hsa-miR-378b","CRp",4.61132675224683e-09,"BvsEqui"
"hsa-miR-378c","CRp",6.81460175117164e-07,"BvsEqui"
"hsa-miR-378d","CRp",5.62655243163321e-12,"BvsEqui"
"hsa-miR-378e","CRp",5.35426209173564e-10,"BvsEqui"
"hsa-mir-3929","CRp",1.8974355329325e-08,"BvsEqui"
"hsa-miR-409-3p","CRp",1.42504847869432e-07,"BvsEqui"
"hsa-miR-411-5p","CRp",2.99570065127887e-09,"BvsEqui"
"hsa-miR-421","CRp",1.90736501630702e-06,"BvsEqui"
"hsa-miR-423-5p","CRp",6.57011120906848e-07,"BvsEqui"
"hsa-miR-424-3p","CRp",1.66682905022671e-09,"BvsEqui"
"hsa-miR-425-3p","CRp",1.44774891185599e-08,"BvsEqui"
"hsa-miR-425-5p","CRp",1.48255763055082e-07,"BvsEqui"
"hsa-miR-432-5p","CRp",2.54207568911532e-07,"BvsEqui"
"hsa-mir-4326","CRp",6.8627945623094e-11,"BvsEqui"
"hsa-miR-433-3p","CRp",4.8041317617074e-08,"BvsEqui"
"hsa-miR-4433-3p","CRp",1.36278068722959e-07,"BvsEqui"
"hsa-miR-4433-5p","CRp",3.16669536861057e-10,"BvsEqui"
"hsa-miR-4433b-3p","CRp",1.20955829392733e-08,"BvsEqui"
"hsa-miR-4433b-5p","CRp",1.63861442663959e-09,"BvsEqui"
"hsa-miR-4440","CRp",1.36172910149618e-08,"BvsEqui"
"hsa-miR-4488","CRp",6.63478118774805e-12,"BvsEqui"
"hsa-miR-449a","CRp",6.59890082203644e-08,"BvsEqui"
"hsa-miR-449b","CRp",7.29165941111844e-09,"BvsEqui"
"hsa-miR-450a-5p","CRp",1.26578940343267e-06,"BvsEqui"
"hsa-miR-450b-5p","CRp",3.17830144209071e-05,"BvsEqui"
"hsa-miR-451a","CRp",4.87925848293313e-09,"BvsEqui"
"hsa-mir-451b","CRp",7.87146118819534e-07,"BvsEqui"
"hsa-mir-4521","CRp",2.95599300608813e-08,"BvsEqui"
"hsa-miR-455-3p","CRp",8.15689713764497e-10,"BvsEqui"
"hsa-miR-4732-5p","CRp",2.03608445029706e-09,"BvsEqui"
"hsa-miR-483-5p","CRp",1.37346277900063e-08,"BvsEqui"
"hsa-miR-484","CRp",5.78787990486087e-09,"BvsEqui"
"hsa-miR-485-3p","CRp",5.85123808845277e-09,"BvsEqui"
"hsa-miR-485-5p","CRp",1.21853621408707e-06,"BvsEqui"
"hsa-miR-486-3p","CRp",2.17879251932173e-08,"BvsEqui"
"hsa-miR-486-5p","CRp",2.39408475325177e-09,"BvsEqui"
"hsa-miR-490-3p","CRp",5.9154246736473e-12,"BvsEqui"
"hsa-miR-495-3p","CRp",1.93736441665997e-05,"BvsEqui"
"hsa-miR-497-5p","CRp",3.18886947541239e-07,"BvsEqui"
"hsa-miR-499a-5p","CRp",1.67350683776151e-05,"BvsEqui"
"hsa-miR-499b-3p","CRp",2.50418098989551e-05,"BvsEqui"
"hsa-miR-500a-3p","CRp",0.0267422013716071,"BvsEqui"
"hsa-miR-500a-5p","CRp",5.90427697556242e-05,"BvsEqui"
"hsa-miR-501-3p","CRp",0.000158593441113514,"BvsEqui"
"hsa-miR-502-3p","CRp",0.060634320598691,"BvsEqui"
"hsa-miR-532-3p","CRp",4.44888824458024e-06,"BvsEqui"
"hsa-miR-532-5p","CRp",1.66119467644378e-06,"BvsEqui"
"hsa-miR-543","CRp",0.00049032873482947,"BvsEqui"
"hsa-miR-551b-3p","CRp",1.64332243434683e-06,"BvsEqui"
"hsa-miR-574-3p","CRp",0.000154487367460593,"BvsEqui"
"hsa-miR-576-3p","CRp",8.0494812557092e-06,"BvsEqui"
"hsa-miR-584-5p","CRp",5.52792066921267e-05,"BvsEqui"
"hsa-miR-589-5p","CRp",1.26716452458282e-06,"BvsEqui"
"hsa-miR-590-5p","CRp",0.00037323229537703,"BvsEqui"
"hsa-miR-605","CRp",6.50446697436258e-07,"BvsEqui"
"hsa-miR-615-3p","CRp",1.11101346623269e-06,"BvsEqui"
"hsa-miR-625-3p","CRp",4.50568760578048e-05,"BvsEqui"
"hsa-miR-625-5p","CRp",0.011609578592002,"BvsEqui"
"hsa-miR-629-5p","CRp",9.72771029806167e-07,"BvsEqui"
"hsa-miR-652-3p","CRp",4.10037254371276e-06,"BvsEqui"
"hsa-miR-654-3p","CRp",1.68573292066873e-06,"BvsEqui"
"hsa-miR-660-5p","CRp",0.000164049166840197,"BvsEqui"
"hsa-miR-664a-5p","CRp",0.00927991870489686,"BvsEqui"
"hsa-miR-671-5p","CRp",0.00503502952379525,"BvsEqui"
"hsa-miR-6852-5p","CRp",2.39536288618686e-05,"BvsEqui"
"hsa-miR-7-5p","CRp",0.00156473575443726,"BvsEqui"
"hsa-miR-744-5p","CRp",0.000105805896692266,"BvsEqui"
"hsa-mir-7641-1","CRp",1.23352933427004e-10,"BvsEqui"
"hsa-miR-766-3p","CRp",0.000624129652373789,"BvsEqui"
"hsa-miR-766-5p","CRp",2.71382668634191e-05,"BvsEqui"
"hsa-miR-769-5p","CRp",5.84452760981943e-05,"BvsEqui"
"hsa-miR-7706","CRp",0.00229123727157071,"BvsEqui"
"hsa-miR-7974","CRp",0.000467886121472716,"BvsEqui"
"hsa-miR-874-3p","CRp",0.000263228699826053,"BvsEqui"
"hsa-miR-885-5p","CRp",0.00220729890266291,"BvsEqui"
"hsa-miR-9-5p","CRp",0.0305091684914257,"BvsEqui"
"hsa-miR-92a-3p","CRp",0.00142288987085509,"BvsEqui"
"hsa-miR-92b-3p","CRp",0.00286065755373119,"BvsEqui"
"hsa-miR-93-3p","CRp",0.000732806616912714,"BvsEqui"
"hsa-miR-941","CRp",0.00116947711598308,"BvsEqui"
"hsa-miR-942-5p","CRp",0.00017211053462069,"BvsEqui"
"hsa-miR-96","CRp",4.41172061917275e-06,"BvsEqui"
"hsa-miR-98-5p","CRp",0.00897210249906935,"BvsEqui"
"hsa-miR-99a-5p","CRp",0.00010453832372544,"BvsEqui"
"hsa-miR-99b-5p","CRp",8.14648790144618e-05,"BvsEqui"
