Proportion of miRNAs with p values less than 0.05
   DeSeq2P  gamlssADP     edgeRP     limtrP limtr.TMPP        vmP    vm.TMMP 
 0.9755245  0.9825175  0.9300699  0.9755245  0.9370629  0.9755245  0.9405594 
    vm.SWP       dssP     EBSeqP 
 0.9860140  0.9895105  1.0000000 
Proportion of miRNAs with p values less than 0.05, stratified by true value
       method        trVal       TDR
1     DeSeq2P -2.44668.... 1.0000000
2     DeSeq2P -1.44668.... 1.0000000
3     DeSeq2P -0.44060.... 0.9718310
4     DeSeq2P 0.559393.... 0.9295775
5        dssP -2.44668.... 1.0000000
6        dssP -1.44668.... 1.0000000
7        dssP -0.44060.... 0.9577465
8        dssP 0.559393.... 1.0000000
9      EBSeqP -2.44668.... 1.0000000
10     EBSeqP -1.44668.... 1.0000000
11     EBSeqP -0.44060.... 1.0000000
12     EBSeqP 0.559393.... 1.0000000
13     edgeRP -2.44668.... 1.0000000
14     edgeRP -1.44668.... 1.0000000
15     edgeRP -0.44060.... 0.7183099
16     edgeRP 0.559393.... 1.0000000
17  gamlssADP -2.44668.... 1.0000000
18  gamlssADP -1.44668.... 1.0000000
19  gamlssADP -0.44060.... 1.0000000
20  gamlssADP 0.559393.... 0.9295775
21 limtr.TMPP -2.44668.... 1.0000000
22 limtr.TMPP -1.44668.... 1.0000000
23 limtr.TMPP -0.44060.... 0.7464789
24 limtr.TMPP 0.559393.... 1.0000000
25     limtrP -2.44668.... 1.0000000
26     limtrP -1.44668.... 1.0000000
27     limtrP -0.44060.... 0.9014085
28     limtrP 0.559393.... 1.0000000
29     vm.SWP -2.44668.... 1.0000000
30     vm.SWP -1.44668.... 1.0000000
31     vm.SWP -0.44060.... 0.9436620
32     vm.SWP 0.559393.... 1.0000000
33    vm.TMMP -2.44668.... 1.0000000
34    vm.TMMP -1.44668.... 1.0000000
35    vm.TMMP -0.44060.... 0.7605634
36    vm.TMMP 0.559393.... 1.0000000
37        vmP -2.44668.... 1.0000000
38        vmP -1.44668.... 1.0000000
39        vmP -0.44060.... 0.9014085
40        vmP 0.559393.... 1.0000000
